optical_pumping/zero_field_transision/zero_field_first_try.csv

Record Length,2500,Points,-822.000026703E-3,11.3999996,,Record Length,2500,Points,-822.000026703E-3,-32.79999924,
Sample Interval,1.0000000E-3,s,-821.000039577E-3,11.3999996,,Sample Interval,1.0000000E-3,s,-821.000039577E-3,-32.79999924,
Trigger Point,821.999987660,Samples,-820.000052452E-3,11.3999996,,Trigger Point,821.999987660,Samples,-820.000052452E-3,-32.00000000,
,,,-819.000005722E-3,11.3999996,,,,,-819.000005722E-3,-32.00000000,
,,,-818.000018597E-3,11.5999994,,,,,-818.000018597E-3,-32.00000000,
,,,-817.000031471E-3,11.5999994,,,,,-817.000031471E-3,-31.20000076,
Source,CH1,,-816.000044346E-3,11.3999996,,Source,CH2,,-816.000044346E-3,-31.20000076,
Vertical Units,Volts,,-814.999997616E-3,11.5999994,,Vertical Units,Volts,,-814.999997616E-3,-30.39999962,
Vertical Scale,5.11953094,,-814.000010490E-3,11.5999994,,Vertical Scale,20.47812531,,-814.000010490E-3,-30.39999962,
Vertical Offset,0,,-813.000023365E-3,11.5999994,,Vertical Offset,0,,-813.000023365E-3,-30.39999962,
Horizontal Units,s,,-812.000036240E-3,11.5999994,,Horizontal Units,s,,-812.000036240E-3,-29.60000038,
Horizontal Scale,250.00001187E-3,,-811.000049114E-3,11.5999994,,Horizontal Scale,250.00001187E-3,,-811.000049114E-3,-28.80000114,
Pt Fmt,Y,,-810.000002384E-3,11.5999994,,Pt Fmt,Y,,-810.000002384E-3,-28.80000114,
Yzero,-2.73462536,,-809.000015259E-3,11.5999994,,Yzero,-117.1982298E-3,,-809.000015259E-3,-28.00000000,
Probe Atten,1.000000,,-808.000028133E-3,11.7999992,,Probe Atten,10.0000000,,-808.000028133E-3,-28.00000000,
,,,-807.000041008E-3,11.7999992,,,,,-807.000041008E-3,-28.00000000,
Note,TDS 2012C - 15:30:50   05.11.2024,,-806.000053883E-3,11.7999992,,Note,TDS 2012C - 15:30:50   05.11.2024,,-806.000053883E-3,-27.20000076,
,,,-805.000007153E-3,11.7999992,,,,,-805.000007153E-3,-27.20000076,
,,,-804.000020027E-3,11.7999992,,,,,-804.000020027E-3,-26.39999962,
,,,-803.000032902E-3,11.7999992,,,,,-803.000032902E-3,-25.60000038,
,,,-802.000045776E-3,11.7999992,,,,,-802.000045776E-3,-25.60000038,
,,,-800.999999046E-3,11.7999992,,,,,-800.999999046E-3,-24.80000114,
,,,-800.000011921E-3,11.9999990,,,,,-800.000011921E-3,-24.80000114,
,,,-799.000024796E-3,11.9999990,,,,,-799.000024796E-3,-24.00000000,
,,,-798.000037670E-3,11.9999990,,,,,-798.000037670E-3,-24.00000000,
,,,-797.000050545E-3,11.9999990,,,,,-797.000050545E-3,-23.20000076,
,,,-796.000003815E-3,11.9999990,,,,,-796.000003815E-3,-23.20000076,
,,,-795.000016689E-3,11.9999990,,,,,-795.000016689E-3,-23.20000076,
,,,-794.000029564E-3,11.9999990,,,,,-794.000029564E-3,-22.39999962,
,,,-793.000042439E-3,11.9999990,,,,,-793.000042439E-3,-22.39999962,
,,,-791.999995708E-3,12.1999989,,,,,-791.999995708E-3,-21.60000038,
,,,-791.000008583E-3,12.1999989,,,,,-791.000008583E-3,-21.60000038,
,,,-790.000021458E-3,12.1999989,,,,,-790.000021458E-3,-20.80000114,
,,,-789.000034332E-3,12.1999989,,,,,-789.000034332E-3,-20.80000114,
,,,-788.000047207E-3,12.1999989,,,,,-788.000047207E-3,-20.0000000,
,,,-787.000000477E-3,12.1999989,,,,,-787.000000477E-3,-20.0000000,
,,,-786.000013351E-3,12.3999996,,,,,-786.000013351E-3,-19.2000008,
,,,-785.000026226E-3,12.3999996,,,,,-785.000026226E-3,-19.2000008,
,,,-784.000039101E-3,12.3999996,,,,,-784.000039101E-3,-18.3999996,
,,,-783.000051975E-3,12.3999996,,,,,-783.000051975E-3,-18.3999996,
,,,-782.000005245E-3,12.3999996,,,,,-782.000005245E-3,-17.6000004,
,,,-781.000018120E-3,12.5999994,,,,,-781.000018120E-3,-17.6000004,
,,,-780.000030994E-3,12.5999994,,,,,-780.000030994E-3,-16.8000011,
,,,-779.000043869E-3,12.3999996,,,,,-779.000043869E-3,-16.8000011,
,,,-777.999997139E-3,12.5999994,,,,,-777.999997139E-3,-16.8000011,
,,,-777.000010014E-3,12.5999994,,,,,-777.000010014E-3,-16.8000011,
,,,-776.000022888E-3,12.5999994,,,,,-776.000022888E-3,-16.0000000,
,,,-775.000035763E-3,12.5999994,,,,,-775.000035763E-3,-15.1999998,
,,,-774.000048637E-3,12.5999994,,,,,-774.000048637E-3,-15.1999998,
,,,-773.000001907E-3,12.5999994,,,,,-773.000001907E-3,-15.1999998,
,,,-772.000014782E-3,12.5999994,,,,,-772.000014782E-3,-15.1999998,
,,,-771.000027657E-3,12.5999994,,,,,-771.000027657E-3,-14.4000006,
,,,-770.000040531E-3,12.7999992,,,,,-770.000040531E-3,-14.4000006,
,,,-769.000053406E-3,12.5999994,,,,,-769.000053406E-3,-13.6000004,
,,,-768.000006676E-3,12.7999992,,,,,-768.000006676E-3,-13.6000004,
,,,-767.000019550E-3,12.7999992,,,,,-767.000019550E-3,-13.6000004,
,,,-766.000032425E-3,12.7999992,,,,,-766.000032425E-3,-12.8000002,
,,,-765.000045300E-3,12.7999992,,,,,-765.000045300E-3,-13.6000004,
,,,-763.999998569E-3,12.7999992,,,,,-763.999998569E-3,-12.0000000,
,,,-763.000011444E-3,12.9999990,,,,,-763.000011444E-3,-12.0000000,
,,,-762.000024319E-3,12.9999990,,,,,-762.000024319E-3,-12.0000000,
,,,-761.000037193E-3,12.9999990,,,,,-761.000037193E-3,-12.0000000,
,,,-760.000050068E-3,12.9999990,,,,,-760.000050068E-3,-12.0000000,
,,,-759.000003338E-3,12.9999990,,,,,-759.000003338E-3,-11.1999998,
,,,-758.000016212E-3,12.9999990,,,,,-758.000016212E-3,-11.1999998,
,,,-757.000029087E-3,12.9999990,,,,,-757.000029087E-3,-10.4000006,
,,,-756.000041962E-3,13.1999989,,,,,-756.000041962E-3,-11.1999998,
,,,-754.999995232E-3,13.1999989,,,,,-754.999995232E-3,-10.4000006,
,,,-754.000008106E-3,13.1999989,,,,,-754.000008106E-3,-10.4000006,
,,,-753.000020981E-3,12.9999990,,,,,-753.000020981E-3,-10.4000006,
,,,-752.000033855E-3,13.1999989,,,,,-752.000033855E-3,-9.600000381,
,,,-751.000046730E-3,13.1999989,,,,,-751.000046730E-3,-9.600000381,
,,,-750.000000000E-3,13.1999989,,,,,-750.000000000E-3,-9.600000381,
,,,-749.000012875E-3,13.1999989,,,,,-749.000012875E-3,-9.600000381,
,,,-748.000025749E-3,13.3999996,,,,,-748.000025749E-3,-9.600000381,
,,,-747.000038624E-3,13.3999996,,,,,-747.000038624E-3,-9.600000381,
,,,-746.000051498E-3,13.3999996,,,,,-746.000051498E-3,-8.800000191,
,,,-745.000004768E-3,13.3999996,,,,,-745.000004768E-3,-8.800000191,
,,,-744.000017643E-3,13.3999996,,,,,-744.000017643E-3,-8.800000191,
,,,-743.000030518E-3,13.5999994,,,,,-743.000030518E-3,-8.800000191,
,,,-742.000043392E-3,13.3999996,,,,,-742.000043392E-3,-8.000000000,
,,,-740.999996662E-3,13.3999996,,,,,-740.999996662E-3,-8.000000000,
,,,-740.000009537E-3,13.5999994,,,,,-740.000009537E-3,-8.000000000,
,,,-739.000022411E-3,13.5999994,,,,,-739.000022411E-3,-7.20000029,
,,,-738.000035286E-3,13.5999994,,,,,-738.000035286E-3,-8.000000000,
,,,-737.000048161E-3,13.5999994,,,,,-737.000048161E-3,-7.20000029,
,,,-736.000001431E-3,13.5999994,,,,,-736.000001431E-3,-8.000000000,
,,,-735.000014305E-3,13.5999994,,,,,-735.000014305E-3,-7.20000029,
,,,-734.000027180E-3,13.5999994,,,,,-734.000027180E-3,-7.20000029,
,,,-733.000040054E-3,13.5999994,,,,,-733.000040054E-3,-7.20000029,
,,,-731.999993324E-3,13.5999994,,,,,-731.999993324E-3,-7.20000029,
,,,-731.000006199E-3,13.7999992,,,,,-731.000006199E-3,-6.40000010,
,,,-730.000019073E-3,13.7999992,,,,,-730.000019073E-3,-7.20000029,
,,,-729.000031948E-3,13.7999992,,,,,-729.000031948E-3,-6.40000010,
,,,-728.000044823E-3,13.7999992,,,,,-728.000044823E-3,-6.40000010,
,,,-726.999998093E-3,13.7999992,,,,,-726.999998093E-3,-6.40000010,
,,,-726.000010967E-3,13.9999990,,,,,-726.000010967E-3,-6.40000010,
,,,-725.000023842E-3,13.9999990,,,,,-725.000023842E-3,-5.59999990,
,,,-724.000036716E-3,13.9999990,,,,,-724.000036716E-3,-6.40000010,
,,,-723.000049591E-3,13.9999990,,,,,-723.000049591E-3,-5.59999990,
,,,-722.000002861E-3,13.9999990,,,,,-722.000002861E-3,-5.59999990,
,,,-721.000015736E-3,13.9999990,,,,,-721.000015736E-3,-5.59999990,
,,,-720.000028610E-3,13.9999990,,,,,-720.000028610E-3,-5.59999990,
,,,-719.000041485E-3,13.9999990,,,,,-719.000041485E-3,-5.59999990,
,,,-717.999994755E-3,13.9999990,,,,,-717.999994755E-3,-4.80000019,
,,,-717.000007629E-3,13.9999990,,,,,-717.000007629E-3,-5.59999990,
,,,-716.000020504E-3,14.1999989,,,,,-716.000020504E-3,-4.80000019,
,,,-715.000033379E-3,14.1999989,,,,,-715.000033379E-3,-5.59999990,
,,,-714.000046253E-3,14.1999989,,,,,-714.000046253E-3,-4.80000019,
,,,-712.999999523E-3,14.1999989,,,,,-712.999999523E-3,-4.80000019,
,,,-712.000012398E-3,14.1999989,,,,,-712.000012398E-3,-4.80000019,
,,,-711.000025272E-3,14.1999989,,,,,-711.000025272E-3,-4.00000000,
,,,-710.000038147E-3,14.3999996,,,,,-710.000038147E-3,-4.00000000,
,,,-709.000051022E-3,14.1999989,,,,,-709.000051022E-3,-4.00000000,
,,,-708.000004292E-3,14.3999996,,,,,-708.000004292E-3,-4.00000000,
,,,-707.000017166E-3,14.3999996,,,,,-707.000017166E-3,-4.80000019,
,,,-706.000030041E-3,14.3999996,,,,,-706.000030041E-3,-4.00000000,
,,,-705.000042915E-3,14.5999994,,,,,-705.000042915E-3,-4.00000000,
,,,-703.999996185E-3,14.3999996,,,,,-703.999996185E-3,-4.00000000,
,,,-703.000009060E-3,14.3999996,,,,,-703.000009060E-3,-4.00000000,
,,,-702.000021935E-3,14.3999996,,,,,-702.000021935E-3,-4.00000000,
,,,-701.000034809E-3,14.3999996,,,,,-701.000034809E-3,-4.00000000,
,,,-700.000047684E-3,14.3999996,,,,,-700.000047684E-3,-3.20000005,
,,,-699.000000954E-3,14.3999996,,,,,-699.000000954E-3,-4.00000000,
,,,-698.000013828E-3,14.3999996,,,,,-698.000013828E-3,-4.00000000,
,,,-697.000026703E-3,14.3999996,,,,,-697.000026703E-3,-4.00000000,
,,,-696.000039577E-3,14.3999996,,,,,-696.000039577E-3,-4.00000000,
,,,-694.999992847E-3,14.3999996,,,,,-694.999992847E-3,-3.20000005,
,,,-694.000005722E-3,14.3999996,,,,,-694.000005722E-3,-3.20000005,
,,,-693.000018597E-3,14.3999996,,,,,-693.000018597E-3,-3.20000005,
,,,-692.000031471E-3,14.5999994,,,,,-692.000031471E-3,-3.20000005,
,,,-691.000044346E-3,14.3999996,,,,,-691.000044346E-3,-3.20000005,
,,,-689.999997616E-3,14.3999996,,,,,-689.999997616E-3,-3.20000005,
,,,-689.000010490E-3,14.3999996,,,,,-689.000010490E-3,-2.4000001,
,,,-688.000023365E-3,14.5999994,,,,,-688.000023365E-3,-3.20000005,
,,,-687.000036240E-3,14.3999996,,,,,-687.000036240E-3,-2.4000001,
,,,-686.000049114E-3,14.3999996,,,,,-686.000049114E-3,-3.20000005,
,,,-685.000002384E-3,14.3999996,,,,,-685.000002384E-3,-2.4000001,
,,,-684.000015259E-3,14.3999996,,,,,-684.000015259E-3,-2.4000001,
,,,-683.000028133E-3,14.3999996,,,,,-683.000028133E-3,-2.4000001,
,,,-682.000041008E-3,14.3999996,,,,,-682.000041008E-3,-2.4000001,
,,,-680.999994278E-3,14.3999996,,,,,-680.999994278E-3,-1.6000000,
,,,-680.000007153E-3,14.3999996,,,,,-680.000007153E-3,-2.4000001,
,,,-679.000020027E-3,14.3999996,,,,,-679.000020027E-3,-1.6000000,
,,,-678.000032902E-3,14.3999996,,,,,-678.000032902E-3,-1.6000000,
,,,-677.000045776E-3,14.5999994,,,,,-677.000045776E-3,-2.4000001,
,,,-675.999999046E-3,14.3999996,,,,,-675.999999046E-3,-2.4000001,
,,,-675.000011921E-3,14.3999996,,,,,-675.000011921E-3,-2.4000001,
,,,-674.000024796E-3,14.5999994,,,,,-674.000024796E-3,-1.6000000,
,,,-673.000037670E-3,14.5999994,,,,,-673.000037670E-3,-1.6000000,
,,,-671.999990940E-3,14.3999996,,,,,-671.999990940E-3,-2.4000001,
,,,-671.000003815E-3,14.3999996,,,,,-671.000003815E-3,-1.6000000,
,,,-670.000016689E-3,14.3999996,,,,,-670.000016689E-3,-2.4000001,
,,,-669.000029564E-3,14.5999994,,,,,-669.000029564E-3,-2.4000001,
,,,-668.000042439E-3,14.3999996,,,,,-668.000042439E-3,-1.6000000,
,,,-666.999995708E-3,14.3999996,,,,,-666.999995708E-3,-1.6000000,
,,,-666.000008583E-3,14.3999996,,,,,-666.000008583E-3,-1.6000000,
,,,-665.000021458E-3,14.3999996,,,,,-665.000021458E-3,-1.6000000,
,,,-664.000034332E-3,14.3999996,,,,,-664.000034332E-3,-1.6000000,
,,,-663.000047207E-3,14.3999996,,,,,-663.000047207E-3,-1.6000000,
,,,-662.000000477E-3,14.3999996,,,,,-662.000000477E-3,-1.6000000,
,,,-661.000013351E-3,14.3999996,,,,,-661.000013351E-3,-1.6000000,
,,,-660.000026226E-3,14.3999996,,,,,-660.000026226E-3,-800.000011921E-3,
,,,-659.000039101E-3,14.3999996,,,,,-659.000039101E-3,-800.000011921E-3,
,,,-657.999992371E-3,14.3999996,,,,,-657.999992371E-3,-1.6000000,
,,,-657.000005245E-3,14.3999996,,,,,-657.000005245E-3,-800.000011921E-3,
,,,-656.000018120E-3,14.3999996,,,,,-656.000018120E-3,-800.000011921E-3,
,,,-655.000030994E-3,14.3999996,,,,,-655.000030994E-3,-1.6000000,
,,,-654.000043869E-3,14.3999996,,,,,-654.000043869E-3,-800.000011921E-3,
,,,-652.999997139E-3,14.3999996,,,,,-652.999997139E-3,-1.6000000,
,,,-652.000010014E-3,14.5999994,,,,,-652.000010014E-3,-800.000011921E-3,
,,,-651.000022888E-3,14.3999996,,,,,-651.000022888E-3,-800.000011921E-3,
,,,-650.000035763E-3,14.3999996,,,,,-650.000035763E-3,-800.000011921E-3,
,,,-648.999989033E-3,14.3999996,,,,,-648.999989033E-3,-800.000011921E-3,
,,,-648.000001907E-3,14.3999996,,,,,-648.000001907E-3,-800.000011921E-3,
,,,-647.000014782E-3,14.3999996,,,,,-647.000014782E-3,-800.000011921E-3,
,,,-646.000027657E-3,14.3999996,,,,,-646.000027657E-3,-800.000011921E-3,
,,,-645.000040531E-3,14.3999996,,,,,-645.000040531E-3,-800.000011921E-3,
,,,-643.999993801E-3,14.3999996,,,,,-643.999993801E-3,-800.000011921E-3,
,,,-643.000006676E-3,14.3999996,,,,,-643.000006676E-3,-800.000011921E-3,
,,,-642.000019550E-3,14.3999996,,,,,-642.000019550E-3,-800.000011921E-3,
,,,-641.000032425E-3,14.3999996,,,,,-641.000032425E-3,-800.000011921E-3,
,,,-640.000045300E-3,14.3999996,,,,,-640.000045300E-3,-800.000011921E-3,
,,,-638.999998569E-3,14.5999994,,,,,-638.999998569E-3,-800.000011921E-3,
,,,-638.000011444E-3,14.3999996,,,,,-638.000011444E-3,-800.000011921E-3,
,,,-637.000024319E-3,14.3999996,,,,,-637.000024319E-3,-800.000011921E-3,
,,,-636.000037193E-3,14.3999996,,,,,-636.000037193E-3,-800.000011921E-3,
,,,-634.999990463E-3,14.3999996,,,,,-634.999990463E-3,-800.000011921E-3,
,,,-634.000003338E-3,14.3999996,,,,,-634.000003338E-3,-800.000011921E-3,
,,,-633.000016212E-3,14.3999996,,,,,-633.000016212E-3,0.0,
,,,-632.000029087E-3,14.3999996,,,,,-632.000029087E-3,-800.000011921E-3,
,,,-631.000041962E-3,14.3999996,,,,,-631.000041962E-3,0.0,
,,,-629.999995232E-3,14.5999994,,,,,-629.999995232E-3,-800.000011921E-3,
,,,-629.000008106E-3,14.3999996,,,,,-629.000008106E-3,-800.000011921E-3,
,,,-628.000020981E-3,14.3999996,,,,,-628.000020981E-3,-800.000011921E-3,
,,,-627.000033855E-3,14.3999996,,,,,-627.000033855E-3,0.0,
,,,-626.000046730E-3,14.3999996,,,,,-626.000046730E-3,0.0,
,,,-625.000000000E-3,14.3999996,,,,,-625.000000000E-3,0.0,
,,,-624.000012875E-3,14.3999996,,,,,-624.000012875E-3,0.0,
,,,-623.000025749E-3,14.3999996,,,,,-623.000025749E-3,0.0,
,,,-622.000038624E-3,14.3999996,,,,,-622.000038624E-3,-800.000011921E-3,
,,,-620.999991894E-3,14.3999996,,,,,-620.999991894E-3,0.0,
,,,-620.000004768E-3,14.3999996,,,,,-620.000004768E-3,-800.000011921E-3,
,,,-619.000017643E-3,14.3999996,,,,,-619.000017643E-3,0.0,
,,,-618.000030518E-3,14.3999996,,,,,-618.000030518E-3,0.0,
,,,-617.000043392E-3,14.3999996,,,,,-617.000043392E-3,0.0,
,,,-615.999996662E-3,14.3999996,,,,,-615.999996662E-3,0.0,
,,,-615.000009537E-3,14.3999996,,,,,-615.000009537E-3,-800.000011921E-3,
,,,-614.000022411E-3,14.3999996,,,,,-614.000022411E-3,0.0,
,,,-613.000035286E-3,14.3999996,,,,,-613.000035286E-3,0.0,
,,,-611.999988556E-3,14.3999996,,,,,-611.999988556E-3,0.0,
,,,-611.000001431E-3,14.3999996,,,,,-611.000001431E-3,0.0,
,,,-610.000014305E-3,14.3999996,,,,,-610.000014305E-3,0.0,
,,,-609.000027180E-3,14.3999996,,,,,-609.000027180E-3,0.0,
,,,-608.000040054E-3,14.3999996,,,,,-608.000040054E-3,0.0,
,,,-606.999993324E-3,14.3999996,,,,,-606.999993324E-3,0.0,
,,,-606.000006199E-3,14.5999994,,,,,-606.000006199E-3,0.0,
,,,-605.000019073E-3,14.3999996,,,,,-605.000019073E-3,0.0,
,,,-604.000031948E-3,14.3999996,,,,,-604.000031948E-3,0.0,
,,,-603.000044823E-3,14.3999996,,,,,-603.000044823E-3,800.000011921E-3,
,,,-601.999998093E-3,14.3999996,,,,,-601.999998093E-3,800.000011921E-3,
,,,-601.000010967E-3,14.3999996,,,,,-601.000010967E-3,0.0,
,,,-600.000023842E-3,14.3999996,,,,,-600.000023842E-3,800.000011921E-3,
,,,-599.000036716E-3,14.3999996,,,,,-599.000036716E-3,800.000011921E-3,
,,,-597.999989986E-3,14.3999996,,,,,-597.999989986E-3,0.0,
,,,-597.000002861E-3,14.3999996,,,,,-597.000002861E-3,0.0,
,,,-596.000015736E-3,14.3999996,,,,,-596.000015736E-3,800.000011921E-3,
,,,-595.000028610E-3,14.3999996,,,,,-595.000028610E-3,800.000011921E-3,
,,,-594.000041485E-3,14.3999996,,,,,-594.000041485E-3,0.0,
,,,-592.999994755E-3,14.3999996,,,,,-592.999994755E-3,0.0,
,,,-592.000007629E-3,14.3999996,,,,,-592.000007629E-3,800.000011921E-3,
,,,-591.000020504E-3,14.3999996,,,,,-591.000020504E-3,800.000011921E-3,
,,,-590.000033379E-3,14.3999996,,,,,-590.000033379E-3,800.000011921E-3,
,,,-588.999986649E-3,14.3999996,,,,,-588.999986649E-3,800.000011921E-3,
,,,-587.999999523E-3,14.3999996,,,,,-587.999999523E-3,0.0,
,,,-587.000012398E-3,14.3999996,,,,,-587.000012398E-3,800.000011921E-3,
,,,-586.000025272E-3,14.3999996,,,,,-586.000025272E-3,0.0,
,,,-585.000038147E-3,14.3999996,,,,,-585.000038147E-3,800.000011921E-3,
,,,-583.999991417E-3,14.3999996,,,,,-583.999991417E-3,800.000011921E-3,
,,,-583.000004292E-3,14.3999996,,,,,-583.000004292E-3,0.0,
,,,-582.000017166E-3,14.3999996,,,,,-582.000017166E-3,800.000011921E-3,
,,,-581.000030041E-3,14.3999996,,,,,-581.000030041E-3,800.000011921E-3,
,,,-580.000042915E-3,14.3999996,,,,,-580.000042915E-3,800.000011921E-3,
,,,-578.999996185E-3,14.3999996,,,,,-578.999996185E-3,1.6000000,
,,,-578.000009060E-3,14.3999996,,,,,-578.000009060E-3,800.000011921E-3,
,,,-577.000021935E-3,14.3999996,,,,,-577.000021935E-3,1.6000000,
,,,-576.000034809E-3,14.3999996,,,,,-576.000034809E-3,800.000011921E-3,
,,,-574.999988079E-3,14.3999996,,,,,-574.999988079E-3,800.000011921E-3,
,,,-574.000000954E-3,14.3999996,,,,,-574.000000954E-3,800.000011921E-3,
,,,-573.000013828E-3,14.5999994,,,,,-573.000013828E-3,800.000011921E-3,
,,,-572.000026703E-3,14.3999996,,,,,-572.000026703E-3,800.000011921E-3,
,,,-571.000039577E-3,14.3999996,,,,,-571.000039577E-3,800.000011921E-3,
,,,-569.999992847E-3,14.3999996,,,,,-569.999992847E-3,800.000011921E-3,
,,,-569.000005722E-3,14.3999996,,,,,-569.000005722E-3,800.000011921E-3,
,,,-568.000018597E-3,14.3999996,,,,,-568.000018597E-3,800.000011921E-3,
,,,-567.000031471E-3,14.3999996,,,,,-567.000031471E-3,800.000011921E-3,
,,,-565.999984741E-3,14.3999996,,,,,-565.999984741E-3,1.6000000,
,,,-564.999997616E-3,14.3999996,,,,,-564.999997616E-3,1.6000000,
,,,-564.000010490E-3,14.3999996,,,,,-564.000010490E-3,800.000011921E-3,
,,,-563.000023365E-3,14.3999996,,,,,-563.000023365E-3,800.000011921E-3,
,,,-562.000036240E-3,14.3999996,,,,,-562.000036240E-3,800.000011921E-3,
,,,-560.999989510E-3,14.5999994,,,,,-560.999989510E-3,800.000011921E-3,
,,,-560.000002384E-3,14.3999996,,,,,-560.000002384E-3,800.000011921E-3,
,,,-559.000015259E-3,14.3999996,,,,,-559.000015259E-3,1.6000000,
,,,-558.000028133E-3,14.3999996,,,,,-558.000028133E-3,800.000011921E-3,
,,,-557.000041008E-3,14.3999996,,,,,-557.000041008E-3,800.000011921E-3,
,,,-555.999994278E-3,14.3999996,,,,,-555.999994278E-3,1.6000000,
,,,-555.000007153E-3,14.3999996,,,,,-555.000007153E-3,1.6000000,
,,,-554.000020027E-3,14.3999996,,,,,-554.000020027E-3,800.000011921E-3,
,,,-553.000032902E-3,14.3999996,,,,,-553.000032902E-3,1.6000000,
,,,-551.999986172E-3,14.3999996,,,,,-551.999986172E-3,1.6000000,
,,,-550.999999046E-3,14.3999996,,,,,-550.999999046E-3,1.6000000,
,,,-550.000011921E-3,14.3999996,,,,,-550.000011921E-3,800.000011921E-3,
,,,-549.000024796E-3,14.3999996,,,,,-549.000024796E-3,800.000011921E-3,
,,,-548.000037670E-3,14.3999996,,,,,-548.000037670E-3,800.000011921E-3,
,,,-546.999990940E-3,14.3999996,,,,,-546.999990940E-3,1.6000000,
,,,-546.000003815E-3,14.3999996,,,,,-546.000003815E-3,1.6000000,
,,,-545.000016689E-3,14.3999996,,,,,-545.000016689E-3,800.000011921E-3,
,,,-544.000029564E-3,14.3999996,,,,,-544.000029564E-3,1.6000000,
,,,-543.000042439E-3,14.3999996,,,,,-543.000042439E-3,1.6000000,
,,,-541.999995708E-3,14.3999996,,,,,-541.999995708E-3,1.6000000,
,,,-541.000008583E-3,14.3999996,,,,,-541.000008583E-3,1.6000000,
,,,-540.000021458E-3,14.3999996,,,,,-540.000021458E-3,1.6000000,
,,,-539.000034332E-3,14.5999994,,,,,-539.000034332E-3,1.6000000,
,,,-537.999987602E-3,14.3999996,,,,,-537.999987602E-3,1.6000000,
,,,-537.000000477E-3,14.3999996,,,,,-537.000000477E-3,1.6000000,
,,,-536.000013351E-3,14.3999996,,,,,-536.000013351E-3,800.000011921E-3,
,,,-535.000026226E-3,14.3999996,,,,,-535.000026226E-3,1.6000000,
