optical_pumping/zeeman_effect/100_khz.csv

Record Length,2500,Points,-109.9999994E-3,3.35999990,,Record Length,2500,Points,-109.9999994E-3,9.199999809,
Sample Interval,399.99998990E-6,s,-109.6000001E-3,3.43999982,,Sample Interval,399.99998990E-6,s,-109.6000001E-3,9.399999619,
Trigger Point,275.00000546,Samples,-109.2000008E-3,3.35999990,,Trigger Point,275.00000546,Samples,-109.2000008E-3,9.399999619,
,,,-108.8000014E-3,3.43999982,,,,,-108.8000014E-3,9.599999428,
,,,-108.4000021E-3,3.43999982,,,,,-108.4000021E-3,9.399999619,
,,,-108.0000028E-3,3.43999982,,,,,-108.0000028E-3,9.399999619,
Source,CH1,,-107.5999960E-3,3.43999982,,Source,CH2,,-107.5999960E-3,9.399999619,
Vertical Units,Volts,,-107.1999967E-3,3.35999990,,Vertical Units,Volts,,-107.1999967E-3,9.399999619,
Vertical Scale,2.0478125,,-106.7999974E-3,3.35999990,,Vertical Scale,5.11953094,,-106.7999974E-3,9.599999428,
Vertical Offset,0,,-106.3999981E-3,3.43999982,,Vertical Offset,0,,-106.3999981E-3,9.399999619,
Horizontal Units,s,,-105.9999987E-3,3.43999982,,Horizontal Units,s,,-105.9999987E-3,9.399999619,
Horizontal Scale,99.999997474E-3,,-105.5999994E-3,3.43999982,,Horizontal Scale,99.999997474E-3,,-105.5999994E-3,9.599999428,
Pt Fmt,Y,,-105.2000001E-3,3.35999990,,Pt Fmt,Y,,-105.2000001E-3,9.599999428,
Yzero,-546.925072486E-3,,-104.8000008E-3,3.43999982,,Yzero,-234.39645964E-3,,-104.8000008E-3,9.599999428,
Probe Atten,1.000000,,-104.4000015E-3,3.43999982,,Probe Atten,10.0000000,,-104.4000015E-3,9.399999619,
,,,-104.0000021E-3,3.35999990,,,,,-104.0000021E-3,9.199999809,
Note,TDS 2012C - 17:00:41   05.11.2024,,-103.6000028E-3,3.43999982,,Note,TDS 2012C - 17:00:41   05.11.2024,,-103.6000028E-3,9.399999619,
,,,-103.1999961E-3,3.35999990,,,,,-103.1999961E-3,9.599999428,
,,,-102.7999967E-3,3.43999982,,,,,-102.7999967E-3,9.599999428,
,,,-102.3999974E-3,3.43999982,,,,,-102.3999974E-3,9.399999619,
,,,-101.9999981E-3,3.43999982,,,,,-101.9999981E-3,9.599999428,
,,,-101.5999988E-3,3.35999990,,,,,-101.5999988E-3,9.199999809,
,,,-101.1999995E-3,3.43999982,,,,,-101.1999995E-3,9.399999619,
,,,-100.8000001E-3,3.43999982,,,,,-100.8000001E-3,9.399999619,
,,,-100.4000008E-3,3.35999990,,,,,-100.4000008E-3,9.399999619,
,,,-100.0000015E-3,3.43999982,,,,,-100.0000015E-3,9.399999619,
,,,-99.600002170E-3,3.43999982,,,,,-99.600002170E-3,9.399999619,
,,,-99.200002849E-3,3.43999982,,,,,-99.200002849E-3,9.399999619,
,,,-98.799996078E-3,3.43999982,,,,,-98.799996078E-3,9.199999809,
,,,-98.399996758E-3,3.43999982,,,,,-98.399996758E-3,9.399999619,
,,,-97.999997437E-3,3.43999982,,,,,-97.999997437E-3,9.399999619,
,,,-97.599998116E-3,3.43999982,,,,,-97.599998116E-3,9.399999619,
,,,-97.199998796E-3,3.43999982,,,,,-97.199998796E-3,9.399999619,
,,,-96.799999475E-3,3.43999982,,,,,-96.799999475E-3,9.599999428,
,,,-96.400000155E-3,3.43999982,,,,,-96.400000155E-3,9.599999428,
,,,-96.000000834E-3,3.43999982,,,,,-96.000000834E-3,9.399999619,
,,,-95.600001514E-3,3.35999990,,,,,-95.600001514E-3,9.399999619,
,,,-95.200002193E-3,3.43999982,,,,,-95.200002193E-3,9.599999428,
,,,-94.800002873E-3,3.43999982,,,,,-94.800002873E-3,9.399999619,
,,,-94.399996102E-3,3.43999982,,,,,-94.399996102E-3,9.399999619,
,,,-93.999996781E-3,3.43999982,,,,,-93.999996781E-3,9.399999619,
,,,-93.599997461E-3,3.43999982,,,,,-93.599997461E-3,9.599999428,
,,,-93.199998140E-3,3.43999982,,,,,-93.199998140E-3,9.399999619,
,,,-92.799998820E-3,3.51999998,,,,,-92.799998820E-3,9.599999428,
,,,-92.399999499E-3,3.43999982,,,,,-92.399999499E-3,9.399999619,
,,,-92.000000179E-3,3.43999982,,,,,-92.000000179E-3,9.399999619,
,,,-91.600000858E-3,3.43999982,,,,,-91.600000858E-3,9.399999619,
,,,-91.200001538E-3,3.43999982,,,,,-91.200001538E-3,9.399999619,
,,,-90.800002217E-3,3.43999982,,,,,-90.800002217E-3,9.399999619,
,,,-90.400002897E-3,3.43999982,,,,,-90.400002897E-3,9.199999809,
,,,-90.000003576E-3,3.43999982,,,,,-90.000003576E-3,9.399999619,
,,,-89.599996805E-3,3.43999982,,,,,-89.599996805E-3,9.399999619,
,,,-89.199997485E-3,3.51999998,,,,,-89.199997485E-3,9.399999619,
,,,-88.799998164E-3,3.43999982,,,,,-88.799998164E-3,9.399999619,
,,,-88.399998844E-3,3.43999982,,,,,-88.399998844E-3,9.399999619,
,,,-87.999999523E-3,3.43999982,,,,,-87.999999523E-3,9.599999428,
,,,-87.600000203E-3,3.43999982,,,,,-87.600000203E-3,9.399999619,
,,,-87.200000882E-3,3.43999982,,,,,-87.200000882E-3,9.599999428,
,,,-86.800001562E-3,3.43999982,,,,,-86.800001562E-3,9.799999237,
,,,-86.400002241E-3,3.51999998,,,,,-86.400002241E-3,9.399999619,
,,,-86.000002921E-3,3.43999982,,,,,-86.000002921E-3,9.599999428,
,,,-85.600003600E-3,3.43999982,,,,,-85.600003600E-3,9.399999619,
,,,-85.199996829E-3,3.51999998,,,,,-85.199996829E-3,9.399999619,
,,,-84.799997509E-3,3.51999998,,,,,-84.799997509E-3,9.399999619,
,,,-84.399998188E-3,3.51999998,,,,,-84.399998188E-3,9.599999428,
,,,-83.999998868E-3,3.43999982,,,,,-83.999998868E-3,9.399999619,
,,,-83.599999547E-3,3.51999998,,,,,-83.599999547E-3,9.599999428,
,,,-83.200000226E-3,3.43999982,,,,,-83.200000226E-3,9.399999619,
,,,-82.800000906E-3,3.51999998,,,,,-82.800000906E-3,9.399999619,
,,,-82.400001585E-3,3.51999998,,,,,-82.400001585E-3,9.399999619,
,,,-82.000002265E-3,3.43999982,,,,,-82.000002265E-3,9.399999619,
,,,-81.600002944E-3,3.51999998,,,,,-81.600002944E-3,9.399999619,
,,,-81.200003624E-3,3.43999982,,,,,-81.200003624E-3,9.599999428,
,,,-80.799996853E-3,3.43999982,,,,,-80.799996853E-3,9.399999619,
,,,-80.399997532E-3,3.51999998,,,,,-80.399997532E-3,9.399999619,
,,,-79.999998212E-3,3.51999998,,,,,-79.999998212E-3,9.599999428,
,,,-79.599998891E-3,3.51999998,,,,,-79.599998891E-3,9.399999619,
,,,-79.199999571E-3,3.51999998,,,,,-79.199999571E-3,9.399999619,
,,,-78.800000250E-3,3.51999998,,,,,-78.800000250E-3,9.399999619,
,,,-78.400000930E-3,3.43999982,,,,,-78.400000930E-3,9.399999619,
,,,-78.000001609E-3,3.51999998,,,,,-78.000001609E-3,9.399999619,
,,,-77.600002289E-3,3.51999998,,,,,-77.600002289E-3,9.599999428,
,,,-77.200002968E-3,3.51999998,,,,,-77.200002968E-3,9.799999237,
,,,-76.800003648E-3,3.51999998,,,,,-76.800003648E-3,9.599999428,
,,,-76.399996877E-3,3.43999982,,,,,-76.399996877E-3,9.599999428,
,,,-75.999997556E-3,3.43999982,,,,,-75.999997556E-3,9.399999619,
,,,-75.599998236E-3,3.51999998,,,,,-75.599998236E-3,9.399999619,
,,,-75.199998915E-3,3.51999998,,,,,-75.199998915E-3,9.599999428,
,,,-74.799999595E-3,3.51999998,,,,,-74.799999595E-3,9.399999619,
,,,-74.400000274E-3,3.51999998,,,,,-74.400000274E-3,9.599999428,
,,,-74.000000954E-3,3.51999998,,,,,-74.000000954E-3,9.599999428,
,,,-73.600001633E-3,3.51999998,,,,,-73.600001633E-3,9.399999619,
,,,-73.200002313E-3,3.51999998,,,,,-73.200002313E-3,9.399999619,
,,,-72.800002992E-3,3.51999998,,,,,-72.800002992E-3,9.399999619,
,,,-72.400003672E-3,3.51999998,,,,,-72.400003672E-3,9.599999428,
,,,-71.999996901E-3,3.51999998,,,,,-71.999996901E-3,9.399999619,
,,,-71.599997580E-3,3.43999982,,,,,-71.599997580E-3,9.199999809,
,,,-71.199998260E-3,3.51999998,,,,,-71.199998260E-3,9.599999428,
,,,-70.799998939E-3,3.51999998,,,,,-70.799998939E-3,9.399999619,
,,,-70.399999619E-3,3.59999990,,,,,-70.399999619E-3,9.399999619,
,,,-70.000000298E-3,3.51999998,,,,,-70.000000298E-3,9.399999619,
,,,-69.600000978E-3,3.51999998,,,,,-69.600000978E-3,9.599999428,
,,,-69.200001657E-3,3.51999998,,,,,-69.200001657E-3,9.399999619,
,,,-68.800002337E-3,3.51999998,,,,,-68.800002337E-3,9.799999237,
,,,-68.400003016E-3,3.51999998,,,,,-68.400003016E-3,9.399999619,
,,,-68.000003695E-3,3.51999998,,,,,-68.000003695E-3,9.399999619,
,,,-67.599996924E-3,3.59999990,,,,,-67.599996924E-3,9.399999619,
,,,-67.199997604E-3,3.51999998,,,,,-67.199997604E-3,9.599999428,
,,,-66.799998283E-3,3.51999998,,,,,-66.799998283E-3,9.599999428,
,,,-66.399998963E-3,3.51999998,,,,,-66.399998963E-3,9.399999619,
,,,-65.999999642E-3,3.51999998,,,,,-65.999999642E-3,9.599999428,
,,,-65.600000322E-3,3.51999998,,,,,-65.600000322E-3,9.599999428,
,,,-65.200001001E-3,3.59999990,,,,,-65.200001001E-3,9.399999619,
,,,-64.800001681E-3,3.51999998,,,,,-64.800001681E-3,9.599999428,
,,,-64.400002360E-3,3.59999990,,,,,-64.400002360E-3,9.399999619,
,,,-64.000003040E-3,3.59999990,,,,,-64.000003040E-3,9.399999619,
,,,-63.600003719E-3,3.59999990,,,,,-63.600003719E-3,9.599999428,
,,,-63.199996948E-3,3.51999998,,,,,-63.199996948E-3,9.399999619,
,,,-62.799997628E-3,3.51999998,,,,,-62.799997628E-3,9.399999619,
,,,-62.400002033E-3,3.51999998,,,,,-62.400002033E-3,9.599999428,
,,,-61.999998987E-3,3.59999990,,,,,-61.999998987E-3,9.399999619,
,,,-61.599999666E-3,3.59999990,,,,,-61.599999666E-3,9.399999619,
,,,-61.200000346E-3,3.51999998,,,,,-61.200000346E-3,9.399999619,
,,,-60.800001025E-3,3.51999998,,,,,-60.800001025E-3,9.399999619,
,,,-60.400001705E-3,3.59999990,,,,,-60.400001705E-3,9.399999619,
,,,-60.000002384E-3,3.59999990,,,,,-60.000002384E-3,9.399999619,
,,,-59.599999338E-3,3.59999990,,,,,-59.599999338E-3,9.399999619,
,,,-59.200000018E-3,3.59999990,,,,,-59.200000018E-3,9.399999619,
,,,-58.800000697E-3,3.59999990,,,,,-58.800000697E-3,9.399999619,
,,,-58.400001377E-3,3.59999990,,,,,-58.400001377E-3,9.599999428,
,,,-58.000002056E-3,3.51999998,,,,,-58.000002056E-3,9.599999428,
,,,-57.599999011E-3,3.59999990,,,,,-57.599999011E-3,9.599999428,
,,,-57.199999690E-3,3.51999998,,,,,-57.199999690E-3,9.399999619,
,,,-56.800000370E-3,3.51999998,,,,,-56.800000370E-3,9.399999619,
,,,-56.400001049E-3,3.59999990,,,,,-56.400001049E-3,9.599999428,
,,,-56.000001729E-3,3.59999990,,,,,-56.000001729E-3,9.599999428,
,,,-55.600002408E-3,3.59999990,,,,,-55.600002408E-3,9.399999619,
,,,-55.199999362E-3,3.59999990,,,,,-55.199999362E-3,9.399999619,
,,,-54.800000042E-3,3.51999998,,,,,-54.800000042E-3,9.399999619,
,,,-54.40000072E-3,3.59999990,,,,,-54.40000072E-3,9.599999428,
,,,-54.00000140E-3,3.59999990,,,,,-54.00000140E-3,9.399999619,
,,,-53.60000208E-3,3.51999998,,,,,-53.60000208E-3,9.399999619,
,,,-53.19999903E-3,3.59999990,,,,,-53.19999903E-3,9.399999619,
,,,-52.79999971E-3,3.59999990,,,,,-52.79999971E-3,9.399999619,
,,,-52.40000039E-3,3.59999990,,,,,-52.40000039E-3,9.199999809,
,,,-52.00000107E-3,3.51999998,,,,,-52.00000107E-3,9.599999428,
,,,-51.60000175E-3,3.51999998,,,,,-51.60000175E-3,9.399999619,
,,,-51.20000243E-3,3.51999998,,,,,-51.20000243E-3,9.399999619,
,,,-50.79999939E-3,3.59999990,,,,,-50.79999939E-3,9.599999428,
,,,-50.40000007E-3,3.51999998,,,,,-50.40000007E-3,9.399999619,
,,,-50.00000075E-3,3.59999990,,,,,-50.00000075E-3,9.399999619,
,,,-49.60000142E-3,3.59999990,,,,,-49.60000142E-3,9.399999619,
,,,-49.20000210E-3,3.59999990,,,,,-49.20000210E-3,9.399999619,
,,,-48.80000278E-3,3.59999990,,,,,-48.80000278E-3,9.199999809,
,,,-48.39999974E-3,3.59999990,,,,,-48.39999974E-3,9.599999428,
,,,-48.00000042E-3,3.59999990,,,,,-48.00000042E-3,9.399999619,
,,,-47.60000110E-3,3.59999990,,,,,-47.60000110E-3,9.599999428,
,,,-47.20000178E-3,3.59999990,,,,,-47.20000178E-3,9.399999619,
,,,-46.80000246E-3,3.59999990,,,,,-46.80000246E-3,9.399999619,
,,,-46.39999941E-3,3.59999990,,,,,-46.39999941E-3,9.399999619,
,,,-46.00000009E-3,3.59999990,,,,,-46.00000009E-3,9.599999428,
,,,-45.60000077E-3,3.51999998,,,,,-45.60000077E-3,9.599999428,
,,,-45.20000145E-3,3.59999990,,,,,-45.20000145E-3,9.399999619,
,,,-44.80000213E-3,3.59999990,,,,,-44.80000213E-3,9.399999619,
,,,-44.40000281E-3,3.59999990,,,,,-44.40000281E-3,9.399999619,
,,,-43.99999976E-3,3.59999990,,,,,-43.99999976E-3,9.599999428,
,,,-43.60000044E-3,3.59999990,,,,,-43.60000044E-3,9.399999619,
,,,-43.20000112E-3,3.59999990,,,,,-43.20000112E-3,9.399999619,
,,,-42.80000180E-3,3.59999990,,,,,-42.80000180E-3,9.599999428,
,,,-42.40000248E-3,3.59999990,,,,,-42.40000248E-3,9.599999428,
,,,-41.99999943E-3,3.59999990,,,,,-41.99999943E-3,9.399999619,
,,,-41.60000011E-3,3.59999990,,,,,-41.60000011E-3,9.399999619,
,,,-41.20000079E-3,3.59999990,,,,,-41.20000079E-3,9.199999809,
,,,-40.80000147E-3,3.59999990,,,,,-40.80000147E-3,9.399999619,
,,,-40.40000215E-3,3.59999990,,,,,-40.40000215E-3,9.599999428,
,,,-40.00000283E-3,3.59999990,,,,,-40.00000283E-3,9.399999619,
,,,-39.59999979E-3,3.59999990,,,,,-39.59999979E-3,9.399999619,
,,,-39.20000046E-3,3.59999990,,,,,-39.20000046E-3,9.399999619,
,,,-38.80000114E-3,3.59999990,,,,,-38.80000114E-3,9.199999809,
,,,-38.40000182E-3,3.59999990,,,,,-38.40000182E-3,9.399999619,
,,,-38.00000250E-3,3.59999990,,,,,-38.00000250E-3,9.399999619,
,,,-37.59999946E-3,3.67999983,,,,,-37.59999946E-3,9.399999619,
,,,-37.20000014E-3,3.59999990,,,,,-37.20000014E-3,9.399999619,
,,,-36.80000082E-3,3.59999990,,,,,-36.80000082E-3,9.599999428,
,,,-36.40000150E-3,3.59999990,,,,,-36.40000150E-3,9.399999619,
,,,-36.00000218E-3,3.67999983,,,,,-36.00000218E-3,9.399999619,
,,,-35.60000286E-3,3.59999990,,,,,-35.60000286E-3,9.399999619,
,,,-35.19999981E-3,3.67999983,,,,,-35.19999981E-3,9.599999428,
,,,-34.80000049E-3,3.59999990,,,,,-34.80000049E-3,9.599999428,
,,,-34.40000117E-3,3.59999990,,,,,-34.40000117E-3,9.599999428,
,,,-34.00000185E-3,3.59999990,,,,,-34.00000185E-3,9.399999619,
,,,-33.60000253E-3,3.67999983,,,,,-33.60000253E-3,9.399999619,
,,,-33.20000321E-3,3.59999990,,,,,-33.20000321E-3,9.399999619,
,,,-32.80000016E-3,3.67999983,,,,,-32.80000016E-3,9.399999619,
,,,-32.40000084E-3,3.59999990,,,,,-32.40000084E-3,9.599999428,
,,,-32.00000152E-3,3.59999990,,,,,-32.00000152E-3,9.199999809,
,,,-31.60000220E-3,3.59999990,,,,,-31.60000220E-3,9.399999619,
,,,-31.20000102E-3,3.59999990,,,,,-31.20000102E-3,9.399999619,
,,,-30.80000170E-3,3.67999983,,,,,-30.80000170E-3,9.399999619,
,,,-30.40000051E-3,3.59999990,,,,,-30.40000051E-3,9.399999619,
,,,-30.00000119E-3,3.67999983,,,,,-30.00000119E-3,9.399999619,
,,,-29.60000187E-3,3.59999990,,,,,-29.60000187E-3,9.399999619,
,,,-29.20000069E-3,3.59999990,,,,,-29.20000069E-3,9.199999809,
,,,-28.80000137E-3,3.67999983,,,,,-28.80000137E-3,9.399999619,
,,,-28.40000205E-3,3.67999983,,,,,-28.40000205E-3,9.599999428,
,,,-28.00000086E-3,3.59999990,,,,,-28.00000086E-3,9.399999619,
,,,-27.60000154E-3,3.67999983,,,,,-27.60000154E-3,9.399999619,
,,,-27.20000222E-3,3.67999983,,,,,-27.20000222E-3,9.599999428,
,,,-26.80000104E-3,3.67999983,,,,,-26.80000104E-3,9.599999428,
,,,-26.40000172E-3,3.59999990,,,,,-26.40000172E-3,9.399999619,
,,,-26.00000240E-3,3.67999983,,,,,-26.00000240E-3,9.599999428,
,,,-25.60000122E-3,3.67999983,,,,,-25.60000122E-3,9.599999428,
,,,-25.20000190E-3,3.59999990,,,,,-25.20000190E-3,9.399999619,
,,,-24.80000071E-3,3.67999983,,,,,-24.80000071E-3,9.599999428,
,,,-24.40000139E-3,3.59999990,,,,,-24.40000139E-3,9.599999428,
,,,-24.00000207E-3,3.59999990,,,,,-24.00000207E-3,9.399999619,
,,,-23.60000089E-3,3.67999983,,,,,-23.60000089E-3,9.599999428,
,,,-23.20000157E-3,3.67999983,,,,,-23.20000157E-3,9.599999428,
,,,-22.80000225E-3,3.59999990,,,,,-22.80000225E-3,9.399999619,
,,,-22.40000106E-3,3.67999983,,,,,-22.40000106E-3,9.399999619,
,,,-22.00000174E-3,3.59999990,,,,,-22.00000174E-3,9.399999619,
,,,-21.60000242E-3,3.67999983,,,,,-21.60000242E-3,9.399999619,
,,,-21.20000124E-3,3.59999990,,,,,-21.20000124E-3,9.399999619,
,,,-20.80000192E-3,3.67999983,,,,,-20.80000192E-3,9.599999428,
,,,-20.40000260E-3,3.67999983,,,,,-20.40000260E-3,9.399999619,
,,,-20.0000014E-3,3.67999983,,,,,-20.0000014E-3,9.399999619,
,,,-19.6000021E-3,3.59999990,,,,,-19.6000021E-3,9.399999619,
,,,-19.2000009E-3,3.67999983,,,,,-19.2000009E-3,9.399999619,
,,,-18.8000016E-3,3.67999983,,,,,-18.8000016E-3,9.399999619,
,,,-18.4000023E-3,3.67999983,,,,,-18.4000023E-3,9.399999619,
,,,-18.0000011E-3,3.67999983,,,,,-18.0000011E-3,9.399999619,
,,,-17.6000018E-3,3.67999983,,,,,-17.6000018E-3,9.399999619,
,,,-17.2000024E-3,3.67999983,,,,,-17.2000024E-3,9.599999428,
,,,-16.8000013E-3,3.67999983,,,,,-16.8000013E-3,9.399999619,
,,,-16.4000019E-3,3.59999990,,,,,-16.4000019E-3,9.599999428,
,,,-16.0000026E-3,3.67999983,,,,,-16.0000026E-3,9.399999619,
,,,-15.6000014E-3,3.67999983,,,,,-15.6000014E-3,9.399999619,
,,,-15.2000021E-3,3.75999999,,,,,-15.2000021E-3,9.599999428,
,,,-14.8000019E-3,3.67999983,,,,,-14.8000019E-3,9.599999428,
,,,-14.4000016E-3,3.67999983,,,,,-14.4000016E-3,9.599999428,
,,,-14.0000023E-3,3.75999999,,,,,-14.0000023E-3,9.599999428,
,,,-13.6000020E-3,3.75999999,,,,,-13.6000020E-3,9.399999619,
,,,-13.2000018E-3,3.59999990,,,,,-13.2000018E-3,9.399999619,
,,,-12.8000015E-3,3.67999983,,,,,-12.8000015E-3,9.399999619,
,,,-12.4000022E-3,3.67999983,,,,,-12.4000022E-3,9.599999428,
,,,-12.0000020E-3,3.67999983,,,,,-12.0000020E-3,9.599999428,
,,,-11.6000017E-3,3.67999983,,,,,-11.6000017E-3,9.199999809,
,,,-11.2000015E-3,3.75999999,,,,,-11.2000015E-3,9.399999619,
,,,-10.8000021E-3,3.67999983,,,,,-10.8000021E-3,9.399999619,
,,,-10.4000019E-3,3.75999999,,,,,-10.4000019E-3,9.399999619,
,,,-10.0000016E-3,3.75999999,,,,,-10.0000016E-3,9.399999619,
,,,-9.600002319E-3,3.75999999,,,,,-9.600002319E-3,9.199999809,
,,,-9.200002067E-3,3.67999983,,,,,-9.200002067E-3,9.399999619,
,,,-8.800001815E-3,3.75999999,,,,,-8.800001815E-3,9.399999619,
,,,-8.400001563E-3,3.67999983,,,,,-8.400001563E-3,9.399999619,
,,,-8.000002243E-3,3.67999983,,,,,-8.000002243E-3,9.199999809,
,,,-7.600001991E-3,3.67999983,,,,,-7.600001991E-3,9.399999619,
,,,-7.20000220E-3,3.67999983,,,,,-7.20000220E-3,9.599999428,
,,,-6.80000195E-3,3.67999983,,,,,-6.80000195E-3,9.599999428,
,,,-6.40000217E-3,3.67999983,,,,,-6.40000217E-3,9.599999428,
,,,-6.00000191E-3,3.75999999,,,,,-6.00000191E-3,9.599999428,
,,,-5.60000213E-3,3.67999983,,,,,-5.60000213E-3,9.599999428,
,,,-5.20000188E-3,3.67999983,,,,,-5.20000188E-3,9.599999428,
,,,-4.80000209E-3,3.75999999,,,,,-4.80000209E-3,9.399999619,
,,,-4.40000184E-3,3.75999999,,,,,-4.40000184E-3,9.399999619,
,,,-4.00000205E-3,3.75999999,,,,,-4.00000205E-3,9.599999428,
,,,-3.60000203E-3,3.67999983,,,,,-3.60000203E-3,9.599999428,
,,,-3.20000201E-3,3.75999999,,,,,-3.20000201E-3,9.399999619,
,,,-2.80000223E-3,3.67999983,,,,,-2.80000223E-3,9.399999619,
,,,-2.4000022E-3,3.75999999,,,,,-2.4000022E-3,9.399999619,
,,,-2.0000022E-3,3.75999999,,,,,-2.0000022E-3,9.399999619,
,,,-1.6000022E-3,3.59999990,,,,,-1.6000022E-3,9.599999428,
,,,-1.2000022E-3,3.27999997,,,,,-1.2000022E-3,9.399999619,
,,,-800.002133474E-6,2.79999995,,,,,-800.002133474E-6,9.399999619,
,,,-400.00217268E-6,2.3199999,,,,,-400.00217268E-6,9.599999428,
,,,-2.1827873E-9,1.9200000,,,,,-2.1827873E-9,9.199999809,
,,,399.99780711E-6,1.5200000,,,,,399.99780711E-6,9.399999619,
,,,799.997826107E-6,1.2800000,,,,,799.997826107E-6,9.399999619,
,,,1.1999977E-3,1.0400000,,,,,1.1999977E-3,9.399999619,
,,,1.5999977E-3,799.999952316E-3,,,,,1.5999977E-3,9.199999809,
,,,1.9999978E-3,719.999969006E-3,,,,,1.9999978E-3,8.999999046,
,,,2.3999978E-3,639.999985695E-3,,,,,2.3999978E-3,9.199999809,
,,,2.79999780E-3,560.000002384E-3,,,,,2.79999780E-3,8.799999237,
,,,3.19999782E-3,560.000002384E-3,,,,,3.19999782E-3,8.599999428,
,,,3.59999761E-3,399.99997616E-3,,,,,3.59999761E-3,8.399999619,
,,,3.99999786E-3,479.999989271E-3,,,,,3.99999786E-3,8.399999619,
,,,4.39999765E-3,399.99997616E-3,,,,,4.39999765E-3,7.999999523,
,,,4.79999790E-3,399.99997616E-3,,,,,4.79999790E-3,7.799999714,
,,,5.19999769E-3,399.99997616E-3,,,,,5.19999769E-3,7.399999619,
,,,5.59999747E-3,399.99997616E-3,,,,,5.59999747E-3,7.19999981,
,,,5.99999772E-3,399.99997616E-3,,,,,5.99999772E-3,6.99999952,
,,,6.39999751E-3,399.99997616E-3,,,,,6.39999751E-3,6.79999971,
,,,6.79999776E-3,399.99997616E-3,,,,,6.79999776E-3,6.19999981,
,,,7.19999755E-3,319.99999285E-3,,,,,7.19999755E-3,6.19999981,
,,,7.599997800E-3,399.99997616E-3,,,,,7.599997800E-3,5.79999971,
,,,7.999997586E-3,399.99997616E-3,,,,,7.999997586E-3,5.39999962,
,,,8.399997838E-3,399.99997616E-3,,,,,8.399997838E-3,4.99999952,
,,,8.799997158E-3,319.99999285E-3,,,,,8.799997158E-3,4.79999971,
,,,9.199997410E-3,399.99997616E-3,,,,,9.199997410E-3,4.39999962,
,,,9.599997662E-3,399.99997616E-3,,,,,9.599997662E-3,4.19999981,
,,,9.999997914E-3,399.99997616E-3,,,,,9.999997914E-3,3.79999971,
,,,10.3999972E-3,399.99997616E-3,,,,,10.3999972E-3,3.39999986,
,,,10.7999975E-3,399.99997616E-3,,,,,10.7999975E-3,2.99999976,
,,,11.1999977E-3,399.99997616E-3,,,,,11.1999977E-3,2.5999999,
,,,11.5999971E-3,399.99997616E-3,,,,,11.5999971E-3,2.1999998,
,,,11.9999973E-3,399.99997616E-3,,,,,11.9999973E-3,1.9999999,
