optical_pumping/zeeman_effect/50_khz_try_2.csv

Record Length,2500,Points,-860.000014305E-3,799.999952316E-3,,Record Length,2500,Points,-860.000014305E-3,2.5999999,
Sample Interval,1.0000000E-3,s,-859.000027180E-3,879.999995232E-3,,Sample Interval,1.0000000E-3,s,-859.000027180E-3,2.5999999,
Trigger Point,859.999973457,Samples,-858.000040054E-3,799.999952316E-3,,Trigger Point,859.999973457,Samples,-858.000040054E-3,2.1999998,
,,,-856.999993324E-3,879.999995232E-3,,,,,-856.999993324E-3,1.9999999,
,,,-856.000006199E-3,879.999995232E-3,,,,,-856.000006199E-3,1.9999999,
,,,-855.000019073E-3,799.999952316E-3,,,,,-855.000019073E-3,1.8000000,
Source,CH1,,-854.000031948E-3,799.999952316E-3,,Source,CH2,,-854.000031948E-3,1.9999999,
Vertical Units,Volts,,-852.999985218E-3,879.999995232E-3,,Vertical Units,Volts,,-852.999985218E-3,1.8000000,
Vertical Scale,2.0478125,,-851.999998093E-3,879.999995232E-3,,Vertical Scale,5.11953094,,-851.999998093E-3,1.8000000,
Vertical Offset,0,,-851.000010967E-3,879.999995232E-3,,Vertical Offset,0,,-851.000010967E-3,1.5999999,
Horizontal Units,s,,-850.000023842E-3,879.999995232E-3,,Horizontal Units,s,,-850.000023842E-3,1.5999999,
Horizontal Scale,250.00001187E-3,,-849.000036716E-3,879.999995232E-3,,Horizontal Scale,250.00001187E-3,,-849.000036716E-3,1.5999999,
Pt Fmt,Y,,-847.999989986E-3,879.999995232E-3,,Pt Fmt,Y,,-847.999989986E-3,1.5999999,
Yzero,-546.925072486E-3,,-847.000002861E-3,879.999995232E-3,,Yzero,-234.39645964E-3,,-847.000002861E-3,1.3999999,
Probe Atten,1.000000,,-846.000015736E-3,879.999995232E-3,,Probe Atten,10.0000000,,-846.000015736E-3,1.3999999,
,,,-845.000028610E-3,879.999995232E-3,,,,,-845.000028610E-3,1.5999999,
Note,TDS 2012C - 16:26:33   05.11.2024,,-844.000041485E-3,879.999995232E-3,,Note,TDS 2012C - 16:26:33   05.11.2024,,-844.000041485E-3,1.5999999,
,,,-842.999994755E-3,879.999995232E-3,,,,,-842.999994755E-3,1.5999999,
,,,-842.000007629E-3,879.999995232E-3,,,,,-842.000007629E-3,1.8000000,
,,,-841.000020504E-3,879.999995232E-3,,,,,-841.000020504E-3,1.9999999,
,,,-840.000033379E-3,879.999995232E-3,,,,,-840.000033379E-3,1.8000000,
,,,-838.999986649E-3,959.999978542E-3,,,,,-838.999986649E-3,1.8000000,
,,,-837.999999523E-3,959.999978542E-3,,,,,-837.999999523E-3,1.9999999,
,,,-837.000012398E-3,959.999978542E-3,,,,,-837.000012398E-3,1.9999999,
,,,-836.000025272E-3,959.999978542E-3,,,,,-836.000025272E-3,2.1999998,
,,,-835.000038147E-3,879.999995232E-3,,,,,-835.000038147E-3,2.3999999,
,,,-833.999991417E-3,959.999978542E-3,,,,,-833.999991417E-3,2.5999999,
,,,-833.000004292E-3,959.999978542E-3,,,,,-833.000004292E-3,2.5999999,
,,,-832.000017166E-3,959.999978542E-3,,,,,-832.000017166E-3,2.99999976,
,,,-831.000030041E-3,959.999978542E-3,,,,,-831.000030041E-3,3.19999981,
,,,-829.999983311E-3,959.999978542E-3,,,,,-829.999983311E-3,3.19999981,
,,,-828.999996185E-3,1.0400000,,,,,-828.999996185E-3,3.39999986,
,,,-828.000009060E-3,959.999978542E-3,,,,,-828.000009060E-3,3.59999990,
,,,-827.000021935E-3,1.0400000,,,,,-827.000021935E-3,3.59999990,
,,,-826.000034809E-3,959.999978542E-3,,,,,-826.000034809E-3,3.59999990,
,,,-824.999988079E-3,959.999978542E-3,,,,,-824.999988079E-3,3.59999990,
,,,-824.000000954E-3,959.999978542E-3,,,,,-824.000000954E-3,3.99999976,
,,,-823.000013828E-3,959.999978542E-3,,,,,-823.000013828E-3,4.19999981,
,,,-822.000026703E-3,1.0400000,,,,,-822.000026703E-3,4.39999962,
,,,-821.000039577E-3,959.999978542E-3,,,,,-821.000039577E-3,4.39999962,
,,,-819.999992847E-3,959.999978542E-3,,,,,-819.999992847E-3,4.39999962,
,,,-819.000005722E-3,959.999978542E-3,,,,,-819.000005722E-3,4.59999990,
,,,-818.000018597E-3,959.999978542E-3,,,,,-818.000018597E-3,4.59999990,
,,,-817.000031471E-3,1.0400000,,,,,-817.000031471E-3,4.79999971,
,,,-815.999984741E-3,1.0400000,,,,,-815.999984741E-3,4.99999952,
,,,-814.999997616E-3,1.0400000,,,,,-814.999997616E-3,4.99999952,
,,,-814.000010490E-3,1.0400000,,,,,-814.000010490E-3,5.39999962,
,,,-813.000023365E-3,1.0400000,,,,,-813.000023365E-3,5.39999962,
,,,-812.000036240E-3,1.0400000,,,,,-812.000036240E-3,5.39999962,
,,,-810.999989510E-3,1.0400000,,,,,-810.999989510E-3,5.39999962,
,,,-810.000002384E-3,1.0400000,,,,,-810.000002384E-3,5.59999943,
,,,-809.000015259E-3,1.0400000,,,,,-809.000015259E-3,5.59999943,
,,,-808.000028133E-3,1.0400000,,,,,-808.000028133E-3,5.59999943,
,,,-807.000041008E-3,1.0400000,,,,,-807.000041008E-3,5.79999971,
,,,-805.999994278E-3,1.0400000,,,,,-805.999994278E-3,5.79999971,
,,,-805.000007153E-3,1.0400000,,,,,-805.000007153E-3,5.99999952,
,,,-804.000020027E-3,1.0400000,,,,,-804.000020027E-3,6.19999981,
,,,-803.000032902E-3,1.0400000,,,,,-803.000032902E-3,5.99999952,
,,,-801.999986172E-3,1.0400000,,,,,-801.999986172E-3,6.19999981,
,,,-800.999999046E-3,1.0400000,,,,,-800.999999046E-3,6.19999981,
,,,-800.000011921E-3,1.0400000,,,,,-800.000011921E-3,6.19999981,
,,,-799.000024796E-3,1.0400000,,,,,-799.000024796E-3,6.19999981,
,,,-798.000037670E-3,1.0400000,,,,,-798.000037670E-3,6.19999981,
,,,-796.999990940E-3,1.0400000,,,,,-796.999990940E-3,6.39999962,
,,,-796.000003815E-3,1.0400000,,,,,-796.000003815E-3,6.39999962,
,,,-795.000016689E-3,1.1200000,,,,,-795.000016689E-3,6.59999943,
,,,-794.000029564E-3,1.0400000,,,,,-794.000029564E-3,6.59999943,
,,,-792.999982834E-3,1.1200000,,,,,-792.999982834E-3,6.59999943,
,,,-791.999995708E-3,1.0400000,,,,,-791.999995708E-3,6.59999943,
,,,-791.000008583E-3,1.1200000,,,,,-791.000008583E-3,6.59999943,
,,,-790.000021458E-3,1.1200000,,,,,-790.000021458E-3,6.59999943,
,,,-789.000034332E-3,1.0400000,,,,,-789.000034332E-3,6.39999962,
,,,-787.999987602E-3,1.0400000,,,,,-787.999987602E-3,6.59999943,
,,,-787.000000477E-3,1.1200000,,,,,-787.000000477E-3,6.39999962,
,,,-786.000013351E-3,1.0400000,,,,,-786.000013351E-3,6.59999943,
,,,-785.000026226E-3,1.1200000,,,,,-785.000026226E-3,6.79999971,
,,,-784.000039101E-3,1.1200000,,,,,-784.000039101E-3,6.79999971,
,,,-782.999992371E-3,1.0400000,,,,,-782.999992371E-3,6.59999943,
,,,-782.000005245E-3,1.0400000,,,,,-782.000005245E-3,6.79999971,
,,,-781.000018120E-3,1.1200000,,,,,-781.000018120E-3,6.59999943,
,,,-780.000030994E-3,1.0400000,,,,,-780.000030994E-3,6.79999971,
,,,-778.999984264E-3,1.1200000,,,,,-778.999984264E-3,6.79999971,
,,,-777.999997139E-3,1.1200000,,,,,-777.999997139E-3,6.79999971,
,,,-777.000010014E-3,1.1200000,,,,,-777.000010014E-3,6.59999943,
,,,-776.000022888E-3,1.1200000,,,,,-776.000022888E-3,6.59999943,
,,,-775.000035763E-3,1.1200000,,,,,-775.000035763E-3,6.59999943,
,,,-773.999989033E-3,1.1200000,,,,,-773.999989033E-3,6.59999943,
,,,-773.000001907E-3,1.1200000,,,,,-773.000001907E-3,6.39999962,
,,,-772.000014782E-3,1.1200000,,,,,-772.000014782E-3,6.59999943,
,,,-771.000027657E-3,1.1200000,,,,,-771.000027657E-3,6.39999962,
,,,-769.999980927E-3,1.1200000,,,,,-769.999980927E-3,6.39999962,
,,,-768.999993801E-3,1.1999999,,,,,-768.999993801E-3,6.39999962,
,,,-768.000006676E-3,1.1999999,,,,,-768.000006676E-3,6.39999962,
,,,-767.000019550E-3,1.1200000,,,,,-767.000019550E-3,6.39999962,
,,,-766.000032425E-3,1.1200000,,,,,-766.000032425E-3,6.19999981,
,,,-764.999985695E-3,1.1999999,,,,,-764.999985695E-3,6.19999981,
,,,-763.999998569E-3,1.1999999,,,,,-763.999998569E-3,5.99999952,
,,,-763.000011444E-3,1.1999999,,,,,-763.000011444E-3,5.99999952,
,,,-762.000024319E-3,1.1999999,,,,,-762.000024319E-3,5.99999952,
,,,-761.000037193E-3,1.1999999,,,,,-761.000037193E-3,5.99999952,
,,,-759.999990463E-3,1.1200000,,,,,-759.999990463E-3,5.79999971,
,,,-759.000003338E-3,1.1999999,,,,,-759.000003338E-3,5.79999971,
,,,-758.000016212E-3,1.1999999,,,,,-758.000016212E-3,5.79999971,
,,,-757.000029087E-3,1.1999999,,,,,-757.000029087E-3,5.39999962,
,,,-755.999982357E-3,1.1999999,,,,,-755.999982357E-3,5.59999943,
,,,-754.999995232E-3,1.1999999,,,,,-754.999995232E-3,5.39999962,
,,,-754.000008106E-3,1.1999999,,,,,-754.000008106E-3,5.39999962,
,,,-753.000020981E-3,1.1999999,,,,,-753.000020981E-3,4.99999952,
,,,-752.000033855E-3,1.1999999,,,,,-752.000033855E-3,4.99999952,
,,,-750.999987125E-3,1.1999999,,,,,-750.999987125E-3,4.59999990,
,,,-750.000000000E-3,1.2800000,,,,,-750.000000000E-3,4.19999981,
,,,-749.000012875E-3,1.1999999,,,,,-749.000012875E-3,3.99999976,
,,,-748.000025749E-3,1.1999999,,,,,-748.000025749E-3,3.59999990,
,,,-747.000038624E-3,1.1999999,,,,,-747.000038624E-3,3.39999986,
,,,-745.999991894E-3,1.1999999,,,,,-745.999991894E-3,2.99999976,
,,,-745.000004768E-3,1.1999999,,,,,-745.000004768E-3,2.5999999,
,,,-744.000017643E-3,1.1999999,,,,,-744.000017643E-3,2.1999998,
,,,-743.000030518E-3,1.2800000,,,,,-743.000030518E-3,1.8000000,
,,,-741.999983788E-3,1.1999999,,,,,-741.999983788E-3,1.5999999,
,,,-740.999996662E-3,1.2800000,,,,,-740.999996662E-3,999.999940395E-3,
,,,-740.000009537E-3,1.2800000,,,,,-740.000009537E-3,399.99997616E-3,
,,,-739.000022411E-3,1.2800000,,,,,-739.000022411E-3,-199.99998808E-3,
,,,-738.000035286E-3,1.2800000,,,,,-738.000035286E-3,-799.999952316E-3,
,,,-736.999988556E-3,1.2800000,,,,,-736.999988556E-3,-1.5999999,
,,,-736.000001431E-3,1.2800000,,,,,-736.000001431E-3,-2.3999999,
,,,-735.000014305E-3,1.2800000,,,,,-735.000014305E-3,-3.39999986,
,,,-734.000027180E-3,1.2800000,,,,,-734.000027180E-3,-4.19999981,
,,,-732.999980450E-3,1.2800000,,,,,-732.999980450E-3,-5.19999981,
,,,-731.999993324E-3,1.2800000,,,,,-731.999993324E-3,-5.99999952,
,,,-731.000006199E-3,1.2800000,,,,,-731.000006199E-3,-6.99999952,
,,,-730.000019073E-3,1.2800000,,,,,-730.000019073E-3,-8.199999809,
,,,-729.000031948E-3,1.2800000,,,,,-729.000031948E-3,-9.199999809,
,,,-727.999985218E-3,1.1999999,,,,,-727.999985218E-3,-9.999999046,
,,,-726.999998093E-3,1.2800000,,,,,-726.999998093E-3,-10.7999992,
,,,-726.000010967E-3,1.2800000,,,,,-726.000010967E-3,-11.7999992,
,,,-725.000023842E-3,1.2800000,,,,,-725.000023842E-3,-12.5999994,
,,,-724.000036716E-3,1.2800000,,,,,-724.000036716E-3,-13.1999989,
,,,-722.999989986E-3,1.2800000,,,,,-722.999989986E-3,-13.9999990,
,,,-722.000002861E-3,1.2800000,,,,,-722.000002861E-3,-14.5999994,
,,,-721.000015736E-3,1.2800000,,,,,-721.000015736E-3,-14.9999990,
,,,-720.000028610E-3,1.2800000,,,,,-720.000028610E-3,-15.5999994,
,,,-718.999981880E-3,1.2800000,,,,,-718.999981880E-3,-15.9999990,
,,,-717.999994755E-3,1.2800000,,,,,-717.999994755E-3,-16.1999989,
,,,-717.000007629E-3,1.2800000,,,,,-717.000007629E-3,-16.7999992,
,,,-716.000020504E-3,1.2800000,,,,,-716.000020504E-3,-16.5999985,
,,,-715.000033379E-3,1.2800000,,,,,-715.000033379E-3,-16.9999981,
,,,-713.999986649E-3,1.2800000,,,,,-713.999986649E-3,-16.7999992,
,,,-712.999999523E-3,1.2800000,,,,,-712.999999523E-3,-16.9999981,
,,,-712.000012398E-3,1.2800000,,,,,-712.000012398E-3,-16.7999992,
,,,-711.000025272E-3,1.2800000,,,,,-711.000025272E-3,-16.9999981,
,,,-709.999978542E-3,1.2800000,,,,,-709.999978542E-3,-16.5999985,
,,,-708.999991417E-3,1.2800000,,,,,-708.999991417E-3,-16.7999992,
,,,-708.000004292E-3,1.2800000,,,,,-708.000004292E-3,-16.3999996,
,,,-707.000017166E-3,1.3600000,,,,,-707.000017166E-3,-16.1999989,
,,,-706.000030041E-3,1.2800000,,,,,-706.000030041E-3,-15.9999990,
,,,-704.999983311E-3,1.3600000,,,,,-704.999983311E-3,-15.5999994,
,,,-703.999996185E-3,1.3600000,,,,,-703.999996185E-3,-15.1999989,
,,,-703.000009060E-3,1.3600000,,,,,-703.000009060E-3,-14.7999992,
,,,-702.000021935E-3,1.3600000,,,,,-702.000021935E-3,-14.3999996,
,,,-701.000034809E-3,1.2800000,,,,,-701.000034809E-3,-13.9999990,
,,,-699.999988079E-3,1.2800000,,,,,-699.999988079E-3,-13.3999996,
,,,-699.000000954E-3,1.3600000,,,,,-699.000000954E-3,-12.9999990,
,,,-698.000013828E-3,1.2800000,,,,,-698.000013828E-3,-12.5999994,
,,,-697.000026703E-3,1.2800000,,,,,-697.000026703E-3,-11.9999990,
,,,-695.999979973E-3,1.3600000,,,,,-695.999979973E-3,-11.1999989,
,,,-694.999992847E-3,1.3600000,,,,,-694.999992847E-3,-10.5999994,
,,,-694.000005722E-3,1.3600000,,,,,-694.000005722E-3,-10.1999998,
,,,-693.000018597E-3,1.3600000,,,,,-693.000018597E-3,-9.599999428,
,,,-692.000031471E-3,1.3600000,,,,,-692.000031471E-3,-8.799999237,
,,,-690.999984741E-3,1.3600000,,,,,-690.999984741E-3,-8.399999619,
,,,-689.999997616E-3,1.3600000,,,,,-689.999997616E-3,-7.999999523,
,,,-689.000010490E-3,1.3600000,,,,,-689.000010490E-3,-7.19999981,
,,,-688.000023365E-3,1.3600000,,,,,-688.000023365E-3,-6.79999971,
,,,-686.999976635E-3,1.4399999,,,,,-686.999976635E-3,-6.19999981,
,,,-685.999989510E-3,1.4399999,,,,,-685.999989510E-3,-5.59999943,
,,,-685.000002384E-3,1.4399999,,,,,-685.000002384E-3,-5.19999981,
,,,-684.000015259E-3,1.3600000,,,,,-684.000015259E-3,-4.59999990,
,,,-683.000028133E-3,1.4399999,,,,,-683.000028133E-3,-4.19999981,
,,,-681.999981403E-3,1.4399999,,,,,-681.999981403E-3,-3.59999990,
,,,-680.999994278E-3,1.4399999,,,,,-680.999994278E-3,-2.99999976,
,,,-680.000007153E-3,1.4399999,,,,,-680.000007153E-3,-2.5999999,
,,,-679.000020027E-3,1.4399999,,,,,-679.000020027E-3,-1.8000000,
,,,-678.000032902E-3,1.3600000,,,,,-678.000032902E-3,-1.3999999,
,,,-676.999986172E-3,1.4399999,,,,,-676.999986172E-3,-999.999940395E-3,
,,,-675.999999046E-3,1.4399999,,,,,-675.999999046E-3,-399.99997616E-3,
,,,-675.000011921E-3,1.4399999,,,,,-675.000011921E-3,0.0,
,,,-674.000024796E-3,1.4399999,,,,,-674.000024796E-3,399.99997616E-3,
,,,-672.999978065E-3,1.4399999,,,,,-672.999978065E-3,599.999964237E-3,
,,,-671.999990940E-3,1.4399999,,,,,-671.999990940E-3,999.999940395E-3,
,,,-671.000003815E-3,1.4399999,,,,,-671.000003815E-3,1.3999999,
,,,-670.000016689E-3,1.4399999,,,,,-670.000016689E-3,1.8000000,
,,,-669.000029564E-3,1.4399999,,,,,-669.000029564E-3,2.1999998,
,,,-667.999982834E-3,1.4399999,,,,,-667.999982834E-3,2.5999999,
,,,-666.999995708E-3,1.4399999,,,,,-666.999995708E-3,2.79999971,
,,,-666.000008583E-3,1.4399999,,,,,-666.000008583E-3,3.19999981,
,,,-665.000021458E-3,1.5200000,,,,,-665.000021458E-3,3.59999990,
,,,-664.000034332E-3,1.5200000,,,,,-664.000034332E-3,3.79999971,
,,,-662.999987602E-3,1.4399999,,,,,-662.999987602E-3,4.19999981,
,,,-662.000000477E-3,1.5200000,,,,,-662.000000477E-3,4.39999962,
,,,-661.000013351E-3,1.5200000,,,,,-661.000013351E-3,4.59999990,
,,,-660.000026226E-3,1.5200000,,,,,-660.000026226E-3,4.79999971,
,,,-658.999979496E-3,1.5200000,,,,,-658.999979496E-3,4.99999952,
,,,-657.999992371E-3,1.5200000,,,,,-657.999992371E-3,5.19999981,
,,,-657.000005245E-3,1.5200000,,,,,-657.000005245E-3,5.39999962,
,,,-656.000018120E-3,1.4399999,,,,,-656.000018120E-3,5.59999943,
,,,-655.000030994E-3,1.5200000,,,,,-655.000030994E-3,5.79999971,
,,,-653.999984264E-3,1.5200000,,,,,-653.999984264E-3,5.99999952,
,,,-652.999997139E-3,1.5200000,,,,,-652.999997139E-3,5.99999952,
,,,-652.000010014E-3,1.5200000,,,,,-652.000010014E-3,6.39999962,
,,,-651.000022888E-3,1.5200000,,,,,-651.000022888E-3,6.19999981,
,,,-649.999976158E-3,1.5200000,,,,,-649.999976158E-3,6.39999962,
,,,-648.999989033E-3,1.5200000,,,,,-648.999989033E-3,6.39999962,
,,,-648.000001907E-3,1.5200000,,,,,-648.000001907E-3,6.79999971,
,,,-647.000014782E-3,1.5200000,,,,,-647.000014782E-3,6.59999943,
,,,-646.000027657E-3,1.5200000,,,,,-646.000027657E-3,6.79999971,
,,,-644.999980927E-3,1.5999999,,,,,-644.999980927E-3,6.99999952,
,,,-643.999993801E-3,1.5200000,,,,,-643.999993801E-3,6.99999952,
,,,-643.000006676E-3,1.5200000,,,,,-643.000006676E-3,6.99999952,
,,,-642.000019550E-3,1.5200000,,,,,-642.000019550E-3,7.19999981,
,,,-641.000032425E-3,1.5200000,,,,,-641.000032425E-3,7.19999981,
,,,-639.999985695E-3,1.5999999,,,,,-639.999985695E-3,7.19999981,
,,,-638.999998569E-3,1.5200000,,,,,-638.999998569E-3,7.19999981,
,,,-638.000011444E-3,1.5200000,,,,,-638.000011444E-3,7.399999619,
,,,-637.000024319E-3,1.5999999,,,,,-637.000024319E-3,7.399999619,
,,,-635.999977589E-3,1.5200000,,,,,-635.999977589E-3,7.399999619,
,,,-634.999990463E-3,1.5999999,,,,,-634.999990463E-3,7.399999619,
,,,-634.000003338E-3,1.5200000,,,,,-634.000003338E-3,7.599999428,
,,,-633.000016212E-3,1.5999999,,,,,-633.000016212E-3,7.599999428,
,,,-632.000029087E-3,1.5200000,,,,,-632.000029087E-3,7.599999428,
,,,-630.999982357E-3,1.5200000,,,,,-630.999982357E-3,7.599999428,
,,,-629.999995232E-3,1.5200000,,,,,-629.999995232E-3,7.399999619,
,,,-629.000008106E-3,1.5999999,,,,,-629.000008106E-3,7.399999619,
,,,-628.000020981E-3,1.5200000,,,,,-628.000020981E-3,7.599999428,
,,,-626.999974251E-3,1.5999999,,,,,-626.999974251E-3,7.599999428,
,,,-625.999987125E-3,1.5999999,,,,,-625.999987125E-3,7.599999428,
,,,-625.000000000E-3,1.5999999,,,,,-625.000000000E-3,7.599999428,
,,,-624.000012875E-3,1.5999999,,,,,-624.000012875E-3,7.399999619,
,,,-623.000025749E-3,1.5999999,,,,,-623.000025749E-3,7.399999619,
,,,-621.999979019E-3,1.5200000,,,,,-621.999979019E-3,7.599999428,
,,,-620.999991894E-3,1.5999999,,,,,-620.999991894E-3,7.399999619,
,,,-620.000004768E-3,1.5999999,,,,,-620.000004768E-3,7.19999981,
,,,-619.000017643E-3,1.5999999,,,,,-619.000017643E-3,7.19999981,
,,,-618.000030518E-3,1.5999999,,,,,-618.000030518E-3,7.19999981,
,,,-616.999983788E-3,1.5999999,,,,,-616.999983788E-3,7.19999981,
,,,-615.999996662E-3,1.5999999,,,,,-615.999996662E-3,7.19999981,
,,,-615.000009537E-3,1.6799999,,,,,-615.000009537E-3,7.19999981,
,,,-614.000022411E-3,1.6799999,,,,,-614.000022411E-3,7.19999981,
,,,-612.999975681E-3,1.5999999,,,,,-612.999975681E-3,7.19999981,
,,,-611.999988556E-3,1.5999999,,,,,-611.999988556E-3,7.19999981,
,,,-611.000001431E-3,1.6799999,,,,,-611.000001431E-3,7.19999981,
,,,-610.000014305E-3,1.6799999,,,,,-610.000014305E-3,6.99999952,
,,,-609.000027180E-3,1.6799999,,,,,-609.000027180E-3,6.79999971,
,,,-607.999980450E-3,1.5999999,,,,,-607.999980450E-3,6.79999971,
,,,-606.999993324E-3,1.6799999,,,,,-606.999993324E-3,6.59999943,
,,,-606.000006199E-3,1.6799999,,,,,-606.000006199E-3,6.39999962,
,,,-605.000019073E-3,1.6799999,,,,,-605.000019073E-3,6.19999981,
,,,-603.999972343E-3,1.6799999,,,,,-603.999972343E-3,5.79999971,
,,,-602.999985218E-3,1.6799999,,,,,-602.999985218E-3,5.79999971,
,,,-601.999998093E-3,1.6799999,,,,,-601.999998093E-3,5.39999962,
,,,-601.000010967E-3,1.6799999,,,,,-601.000010967E-3,5.19999981,
,,,-600.000023842E-3,1.6799999,,,,,-600.000023842E-3,4.59999990,
,,,-598.999977112E-3,1.6799999,,,,,-598.999977112E-3,4.19999981,
,,,-597.999989986E-3,1.6799999,,,,,-597.999989986E-3,3.99999976,
,,,-597.000002861E-3,1.6799999,,,,,-597.000002861E-3,3.59999990,
,,,-596.000015736E-3,1.6799999,,,,,-596.000015736E-3,3.59999990,
,,,-595.000028610E-3,1.6799999,,,,,-595.000028610E-3,3.19999981,
,,,-593.999981880E-3,1.7600000,,,,,-593.999981880E-3,2.99999976,
,,,-592.999994755E-3,1.6799999,,,,,-592.999994755E-3,2.5999999,
,,,-592.000007629E-3,1.6799999,,,,,-592.000007629E-3,2.3999999,
,,,-591.000020504E-3,1.7600000,,,,,-591.000020504E-3,2.1999998,
,,,-589.999973774E-3,1.7600000,,,,,-589.999973774E-3,1.9999999,
,,,-588.999986649E-3,1.6799999,,,,,-588.999986649E-3,1.8000000,
,,,-587.999999523E-3,1.7600000,,,,,-587.999999523E-3,1.8000000,
,,,-587.000012398E-3,1.7600000,,,,,-587.000012398E-3,1.8000000,
,,,-586.000025272E-3,1.7600000,,,,,-586.000025272E-3,1.5999999,
,,,-584.999978542E-3,1.7600000,,,,,-584.999978542E-3,1.5999999,
,,,-583.999991417E-3,1.7600000,,,,,-583.999991417E-3,1.5999999,
,,,-583.000004292E-3,1.7600000,,,,,-583.000004292E-3,1.3999999,
,,,-582.000017166E-3,1.7600000,,,,,-582.000017166E-3,1.3999999,
,,,-581.000030041E-3,1.7600000,,,,,-581.000030041E-3,1.5999999,
,,,-579.999983311E-3,1.7600000,,,,,-579.999983311E-3,1.3999999,
,,,-578.999996185E-3,1.7600000,,,,,-578.999996185E-3,1.3999999,
,,,-578.000009060E-3,1.7600000,,,,,-578.000009060E-3,1.3999999,
,,,-577.000021935E-3,1.7600000,,,,,-577.000021935E-3,1.5999999,
,,,-575.999975204E-3,1.7600000,,,,,-575.999975204E-3,1.8000000,
,,,-574.999988079E-3,1.7600000,,,,,-574.999988079E-3,1.8000000,
,,,-574.000000954E-3,1.7600000,,,,,-574.000000954E-3,1.8000000,
,,,-573.000013828E-3,1.7600000,,,,,-573.000013828E-3,1.9999999,
,,,-572.000026703E-3,1.7600000,,,,,-572.000026703E-3,2.1999998,
,,,-570.999979973E-3,1.7600000,,,,,-570.999979973E-3,2.3999999,
,,,-569.999992847E-3,1.7600000,,,,,-569.999992847E-3,2.3999999,
,,,-569.000005722E-3,1.7600000,,,,,-569.000005722E-3,2.5999999,
,,,-568.000018597E-3,1.7600000,,,,,-568.000018597E-3,2.5999999,
