optical_pumping/zeeman_effect/90_khz.csv

Record Length,2500,Points,-109.9999994E-3,3.43999982,,Record Length,2500,Points,-109.9999994E-3,7.19999981,
Sample Interval,399.99998990E-6,s,-109.6000001E-3,3.43999982,,Sample Interval,399.99998990E-6,s,-109.6000001E-3,7.19999981,
Trigger Point,275.00000546,Samples,-109.2000008E-3,3.43999982,,Trigger Point,275.00000546,Samples,-109.2000008E-3,6.99999952,
,,,-108.8000014E-3,3.43999982,,,,,-108.8000014E-3,6.99999952,
,,,-108.4000021E-3,3.51999998,,,,,-108.4000021E-3,7.19999981,
,,,-108.0000028E-3,3.43999982,,,,,-108.0000028E-3,7.19999981,
Source,CH1,,-107.5999960E-3,3.43999982,,Source,CH2,,-107.5999960E-3,6.99999952,
Vertical Units,Volts,,-107.1999967E-3,3.43999982,,Vertical Units,Volts,,-107.1999967E-3,6.99999952,
Vertical Scale,2.0478125,,-106.7999974E-3,3.43999982,,Vertical Scale,5.11953094,,-106.7999974E-3,6.99999952,
Vertical Offset,0,,-106.3999981E-3,3.43999982,,Vertical Offset,0,,-106.3999981E-3,6.99999952,
Horizontal Units,s,,-105.9999987E-3,3.43999982,,Horizontal Units,s,,-105.9999987E-3,7.19999981,
Horizontal Scale,99.999997474E-3,,-105.5999994E-3,3.43999982,,Horizontal Scale,99.999997474E-3,,-105.5999994E-3,7.19999981,
Pt Fmt,Y,,-105.2000001E-3,3.43999982,,Pt Fmt,Y,,-105.2000001E-3,6.99999952,
Yzero,-546.925072486E-3,,-104.8000008E-3,3.43999982,,Yzero,-234.39645964E-3,,-104.8000008E-3,6.99999952,
Probe Atten,1.000000,,-104.4000015E-3,3.43999982,,Probe Atten,10.0000000,,-104.4000015E-3,6.99999952,
,,,-104.0000021E-3,3.43999982,,,,,-104.0000021E-3,7.19999981,
Note,TDS 2012C - 16:50:27   05.11.2024,,-103.6000028E-3,3.51999998,,Note,TDS 2012C - 16:50:27   05.11.2024,,-103.6000028E-3,6.99999952,
,,,-103.1999961E-3,3.43999982,,,,,-103.1999961E-3,6.99999952,
,,,-102.7999967E-3,3.43999982,,,,,-102.7999967E-3,6.99999952,
,,,-102.3999974E-3,3.51999998,,,,,-102.3999974E-3,6.99999952,
,,,-101.9999981E-3,3.43999982,,,,,-101.9999981E-3,6.99999952,
,,,-101.5999988E-3,3.51999998,,,,,-101.5999988E-3,7.19999981,
,,,-101.1999995E-3,3.43999982,,,,,-101.1999995E-3,7.19999981,
,,,-100.8000001E-3,3.51999998,,,,,-100.8000001E-3,6.99999952,
,,,-100.4000008E-3,3.43999982,,,,,-100.4000008E-3,6.99999952,
,,,-100.0000015E-3,3.43999982,,,,,-100.0000015E-3,6.99999952,
,,,-99.600002170E-3,3.51999998,,,,,-99.600002170E-3,7.19999981,
,,,-99.200002849E-3,3.51999998,,,,,-99.200002849E-3,6.99999952,
,,,-98.799996078E-3,3.43999982,,,,,-98.799996078E-3,7.19999981,
,,,-98.399996758E-3,3.43999982,,,,,-98.399996758E-3,7.19999981,
,,,-97.999997437E-3,3.51999998,,,,,-97.999997437E-3,6.99999952,
,,,-97.599998116E-3,3.51999998,,,,,-97.599998116E-3,7.19999981,
,,,-97.199998796E-3,3.43999982,,,,,-97.199998796E-3,7.19999981,
,,,-96.799999475E-3,3.43999982,,,,,-96.799999475E-3,6.99999952,
,,,-96.400000155E-3,3.43999982,,,,,-96.400000155E-3,6.99999952,
,,,-96.000000834E-3,3.51999998,,,,,-96.000000834E-3,7.19999981,
,,,-95.600001514E-3,3.43999982,,,,,-95.600001514E-3,6.99999952,
,,,-95.200002193E-3,3.51999998,,,,,-95.200002193E-3,6.99999952,
,,,-94.800002873E-3,3.51999998,,,,,-94.800002873E-3,7.19999981,
,,,-94.399996102E-3,3.51999998,,,,,-94.399996102E-3,6.79999971,
,,,-93.999996781E-3,3.51999998,,,,,-93.999996781E-3,6.99999952,
,,,-93.599997461E-3,3.43999982,,,,,-93.599997461E-3,6.99999952,
,,,-93.199998140E-3,3.51999998,,,,,-93.199998140E-3,6.99999952,
,,,-92.799998820E-3,3.51999998,,,,,-92.799998820E-3,6.79999971,
,,,-92.399999499E-3,3.51999998,,,,,-92.399999499E-3,7.19999981,
,,,-92.000000179E-3,3.51999998,,,,,-92.000000179E-3,6.99999952,
,,,-91.600000858E-3,3.51999998,,,,,-91.600000858E-3,7.19999981,
,,,-91.200001538E-3,3.51999998,,,,,-91.200001538E-3,6.99999952,
,,,-90.800002217E-3,3.51999998,,,,,-90.800002217E-3,6.99999952,
,,,-90.400002897E-3,3.43999982,,,,,-90.400002897E-3,6.99999952,
,,,-90.000003576E-3,3.51999998,,,,,-90.000003576E-3,6.99999952,
,,,-89.599996805E-3,3.51999998,,,,,-89.599996805E-3,6.79999971,
,,,-89.199997485E-3,3.51999998,,,,,-89.199997485E-3,7.19999981,
,,,-88.799998164E-3,3.51999998,,,,,-88.799998164E-3,6.99999952,
,,,-88.399998844E-3,3.51999998,,,,,-88.399998844E-3,7.19999981,
,,,-87.999999523E-3,3.43999982,,,,,-87.999999523E-3,7.19999981,
,,,-87.600000203E-3,3.51999998,,,,,-87.600000203E-3,6.99999952,
,,,-87.200000882E-3,3.51999998,,,,,-87.200000882E-3,6.99999952,
,,,-86.800001562E-3,3.59999990,,,,,-86.800001562E-3,7.19999981,
,,,-86.400002241E-3,3.51999998,,,,,-86.400002241E-3,7.19999981,
,,,-86.000002921E-3,3.59999990,,,,,-86.000002921E-3,6.99999952,
,,,-85.600003600E-3,3.51999998,,,,,-85.600003600E-3,6.99999952,
,,,-85.199996829E-3,3.51999998,,,,,-85.199996829E-3,6.99999952,
,,,-84.799997509E-3,3.51999998,,,,,-84.799997509E-3,6.99999952,
,,,-84.399998188E-3,3.51999998,,,,,-84.399998188E-3,6.99999952,
,,,-83.999998868E-3,3.51999998,,,,,-83.999998868E-3,7.19999981,
,,,-83.599999547E-3,3.51999998,,,,,-83.599999547E-3,6.99999952,
,,,-83.200000226E-3,3.51999998,,,,,-83.200000226E-3,7.19999981,
,,,-82.800000906E-3,3.51999998,,,,,-82.800000906E-3,6.99999952,
,,,-82.400001585E-3,3.51999998,,,,,-82.400001585E-3,6.99999952,
,,,-82.000002265E-3,3.51999998,,,,,-82.000002265E-3,6.99999952,
,,,-81.600002944E-3,3.51999998,,,,,-81.600002944E-3,7.19999981,
,,,-81.200003624E-3,3.51999998,,,,,-81.200003624E-3,6.99999952,
,,,-80.799996853E-3,3.51999998,,,,,-80.799996853E-3,6.99999952,
,,,-80.399997532E-3,3.51999998,,,,,-80.399997532E-3,7.19999981,
,,,-79.999998212E-3,3.59999990,,,,,-79.999998212E-3,7.19999981,
,,,-79.599998891E-3,3.51999998,,,,,-79.599998891E-3,7.19999981,
,,,-79.199999571E-3,3.51999998,,,,,-79.199999571E-3,6.99999952,
,,,-78.800000250E-3,3.59999990,,,,,-78.800000250E-3,6.99999952,
,,,-78.400000930E-3,3.51999998,,,,,-78.400000930E-3,7.19999981,
,,,-78.000001609E-3,3.51999998,,,,,-78.000001609E-3,7.19999981,
,,,-77.600002289E-3,3.51999998,,,,,-77.600002289E-3,6.99999952,
,,,-77.200002968E-3,3.51999998,,,,,-77.200002968E-3,7.19999981,
,,,-76.800003648E-3,3.51999998,,,,,-76.800003648E-3,6.99999952,
,,,-76.399996877E-3,3.59999990,,,,,-76.399996877E-3,7.19999981,
,,,-75.999997556E-3,3.51999998,,,,,-75.999997556E-3,7.19999981,
,,,-75.599998236E-3,3.51999998,,,,,-75.599998236E-3,7.19999981,
,,,-75.199998915E-3,3.59999990,,,,,-75.199998915E-3,7.19999981,
,,,-74.799999595E-3,3.51999998,,,,,-74.799999595E-3,6.99999952,
,,,-74.400000274E-3,3.59999990,,,,,-74.400000274E-3,6.99999952,
,,,-74.000000954E-3,3.51999998,,,,,-74.000000954E-3,6.99999952,
,,,-73.600001633E-3,3.51999998,,,,,-73.600001633E-3,6.99999952,
,,,-73.200002313E-3,3.51999998,,,,,-73.200002313E-3,7.19999981,
,,,-72.800002992E-3,3.59999990,,,,,-72.800002992E-3,6.99999952,
,,,-72.400003672E-3,3.59999990,,,,,-72.400003672E-3,6.99999952,
,,,-71.999996901E-3,3.51999998,,,,,-71.999996901E-3,7.19999981,
,,,-71.599997580E-3,3.51999998,,,,,-71.599997580E-3,7.19999981,
,,,-71.199998260E-3,3.51999998,,,,,-71.199998260E-3,6.79999971,
,,,-70.799998939E-3,3.59999990,,,,,-70.799998939E-3,6.79999971,
,,,-70.399999619E-3,3.59999990,,,,,-70.399999619E-3,7.19999981,
,,,-70.000000298E-3,3.59999990,,,,,-70.000000298E-3,6.99999952,
,,,-69.600000978E-3,3.59999990,,,,,-69.600000978E-3,6.99999952,
,,,-69.200001657E-3,3.59999990,,,,,-69.200001657E-3,7.19999981,
,,,-68.800002337E-3,3.51999998,,,,,-68.800002337E-3,7.19999981,
,,,-68.400003016E-3,3.59999990,,,,,-68.400003016E-3,6.99999952,
,,,-68.000003695E-3,3.59999990,,,,,-68.000003695E-3,6.99999952,
,,,-67.599996924E-3,3.59999990,,,,,-67.599996924E-3,6.99999952,
,,,-67.199997604E-3,3.59999990,,,,,-67.199997604E-3,7.19999981,
,,,-66.799998283E-3,3.59999990,,,,,-66.799998283E-3,7.19999981,
,,,-66.399998963E-3,3.59999990,,,,,-66.399998963E-3,6.99999952,
,,,-65.999999642E-3,3.59999990,,,,,-65.999999642E-3,7.19999981,
,,,-65.600000322E-3,3.59999990,,,,,-65.600000322E-3,7.19999981,
,,,-65.200001001E-3,3.59999990,,,,,-65.200001001E-3,7.19999981,
,,,-64.800001681E-3,3.59999990,,,,,-64.800001681E-3,7.19999981,
,,,-64.400002360E-3,3.59999990,,,,,-64.400002360E-3,6.99999952,
,,,-64.000003040E-3,3.59999990,,,,,-64.000003040E-3,6.99999952,
,,,-63.600003719E-3,3.59999990,,,,,-63.600003719E-3,6.99999952,
,,,-63.199996948E-3,3.59999990,,,,,-63.199996948E-3,6.99999952,
,,,-62.799997628E-3,3.59999990,,,,,-62.799997628E-3,7.19999981,
,,,-62.400002033E-3,3.59999990,,,,,-62.400002033E-3,7.19999981,
,,,-61.999998987E-3,3.59999990,,,,,-61.999998987E-3,6.99999952,
,,,-61.599999666E-3,3.59999990,,,,,-61.599999666E-3,6.99999952,
,,,-61.200000346E-3,3.59999990,,,,,-61.200000346E-3,6.99999952,
,,,-60.800001025E-3,3.59999990,,,,,-60.800001025E-3,6.99999952,
,,,-60.400001705E-3,3.59999990,,,,,-60.400001705E-3,7.19999981,
,,,-60.000002384E-3,3.67999983,,,,,-60.000002384E-3,7.19999981,
,,,-59.599999338E-3,3.59999990,,,,,-59.599999338E-3,6.99999952,
,,,-59.200000018E-3,3.59999990,,,,,-59.200000018E-3,7.19999981,
,,,-58.800000697E-3,3.59999990,,,,,-58.800000697E-3,6.99999952,
,,,-58.400001377E-3,3.59999990,,,,,-58.400001377E-3,7.19999981,
,,,-58.000002056E-3,3.59999990,,,,,-58.000002056E-3,6.99999952,
,,,-57.599999011E-3,3.59999990,,,,,-57.599999011E-3,7.19999981,
,,,-57.199999690E-3,3.67999983,,,,,-57.199999690E-3,6.99999952,
,,,-56.800000370E-3,3.67999983,,,,,-56.800000370E-3,6.99999952,
,,,-56.400001049E-3,3.59999990,,,,,-56.400001049E-3,7.19999981,
,,,-56.000001729E-3,3.59999990,,,,,-56.000001729E-3,7.19999981,
,,,-55.600002408E-3,3.59999990,,,,,-55.600002408E-3,6.99999952,
,,,-55.199999362E-3,3.59999990,,,,,-55.199999362E-3,7.19999981,
,,,-54.800000042E-3,3.67999983,,,,,-54.800000042E-3,6.99999952,
,,,-54.40000072E-3,3.59999990,,,,,-54.40000072E-3,6.99999952,
,,,-54.00000140E-3,3.67999983,,,,,-54.00000140E-3,7.19999981,
,,,-53.60000208E-3,3.59999990,,,,,-53.60000208E-3,6.79999971,
,,,-53.19999903E-3,3.59999990,,,,,-53.19999903E-3,6.99999952,
,,,-52.79999971E-3,3.59999990,,,,,-52.79999971E-3,6.99999952,
,,,-52.40000039E-3,3.59999990,,,,,-52.40000039E-3,6.99999952,
,,,-52.00000107E-3,3.59999990,,,,,-52.00000107E-3,7.19999981,
,,,-51.60000175E-3,3.59999990,,,,,-51.60000175E-3,6.99999952,
,,,-51.20000243E-3,3.59999990,,,,,-51.20000243E-3,6.99999952,
,,,-50.79999939E-3,3.67999983,,,,,-50.79999939E-3,7.19999981,
,,,-50.40000007E-3,3.59999990,,,,,-50.40000007E-3,6.99999952,
,,,-50.00000075E-3,3.59999990,,,,,-50.00000075E-3,6.99999952,
,,,-49.60000142E-3,3.67999983,,,,,-49.60000142E-3,7.19999981,
,,,-49.20000210E-3,3.67999983,,,,,-49.20000210E-3,6.99999952,
,,,-48.80000278E-3,3.67999983,,,,,-48.80000278E-3,7.19999981,
,,,-48.39999974E-3,3.59999990,,,,,-48.39999974E-3,6.99999952,
,,,-48.00000042E-3,3.59999990,,,,,-48.00000042E-3,7.19999981,
,,,-47.60000110E-3,3.67999983,,,,,-47.60000110E-3,7.19999981,
,,,-47.20000178E-3,3.67999983,,,,,-47.20000178E-3,7.19999981,
,,,-46.80000246E-3,3.67999983,,,,,-46.80000246E-3,6.99999952,
,,,-46.39999941E-3,3.67999983,,,,,-46.39999941E-3,6.99999952,
,,,-46.00000009E-3,3.67999983,,,,,-46.00000009E-3,7.19999981,
,,,-45.60000077E-3,3.67999983,,,,,-45.60000077E-3,6.99999952,
,,,-45.20000145E-3,3.59999990,,,,,-45.20000145E-3,7.19999981,
,,,-44.80000213E-3,3.67999983,,,,,-44.80000213E-3,6.99999952,
,,,-44.40000281E-3,3.67999983,,,,,-44.40000281E-3,6.99999952,
,,,-43.99999976E-3,3.67999983,,,,,-43.99999976E-3,6.99999952,
,,,-43.60000044E-3,3.59999990,,,,,-43.60000044E-3,6.99999952,
,,,-43.20000112E-3,3.67999983,,,,,-43.20000112E-3,7.19999981,
,,,-42.80000180E-3,3.67999983,,,,,-42.80000180E-3,6.99999952,
,,,-42.40000248E-3,3.67999983,,,,,-42.40000248E-3,6.99999952,
,,,-41.99999943E-3,3.67999983,,,,,-41.99999943E-3,7.19999981,
,,,-41.60000011E-3,3.67999983,,,,,-41.60000011E-3,6.79999971,
,,,-41.20000079E-3,3.59999990,,,,,-41.20000079E-3,6.99999952,
,,,-40.80000147E-3,3.67999983,,,,,-40.80000147E-3,6.99999952,
,,,-40.40000215E-3,3.67999983,,,,,-40.40000215E-3,7.19999981,
,,,-40.00000283E-3,3.67999983,,,,,-40.00000283E-3,7.19999981,
,,,-39.59999979E-3,3.67999983,,,,,-39.59999979E-3,7.19999981,
,,,-39.20000046E-3,3.67999983,,,,,-39.20000046E-3,6.99999952,
,,,-38.80000114E-3,3.67999983,,,,,-38.80000114E-3,7.19999981,
,,,-38.40000182E-3,3.67999983,,,,,-38.40000182E-3,7.19999981,
,,,-38.00000250E-3,3.67999983,,,,,-38.00000250E-3,6.99999952,
,,,-37.59999946E-3,3.67999983,,,,,-37.59999946E-3,6.99999952,
,,,-37.20000014E-3,3.67999983,,,,,-37.20000014E-3,6.99999952,
,,,-36.80000082E-3,3.75999999,,,,,-36.80000082E-3,6.99999952,
,,,-36.40000150E-3,3.67999983,,,,,-36.40000150E-3,7.19999981,
,,,-36.00000218E-3,3.67999983,,,,,-36.00000218E-3,6.99999952,
,,,-35.60000286E-3,3.67999983,,,,,-35.60000286E-3,7.19999981,
,,,-35.19999981E-3,3.67999983,,,,,-35.19999981E-3,7.19999981,
,,,-34.80000049E-3,3.67999983,,,,,-34.80000049E-3,6.99999952,
,,,-34.40000117E-3,3.67999983,,,,,-34.40000117E-3,6.99999952,
,,,-34.00000185E-3,3.67999983,,,,,-34.00000185E-3,6.79999971,
,,,-33.60000253E-3,3.75999999,,,,,-33.60000253E-3,7.19999981,
,,,-33.20000321E-3,3.67999983,,,,,-33.20000321E-3,7.19999981,
,,,-32.80000016E-3,3.75999999,,,,,-32.80000016E-3,6.99999952,
,,,-32.40000084E-3,3.67999983,,,,,-32.40000084E-3,6.99999952,
,,,-32.00000152E-3,3.67999983,,,,,-32.00000152E-3,7.19999981,
,,,-31.60000220E-3,3.75999999,,,,,-31.60000220E-3,7.19999981,
,,,-31.20000102E-3,3.67999983,,,,,-31.20000102E-3,6.99999952,
,,,-30.80000170E-3,3.67999983,,,,,-30.80000170E-3,6.99999952,
,,,-30.40000051E-3,3.75999999,,,,,-30.40000051E-3,6.99999952,
,,,-30.00000119E-3,3.67999983,,,,,-30.00000119E-3,7.19999981,
,,,-29.60000187E-3,3.75999999,,,,,-29.60000187E-3,6.99999952,
,,,-29.20000069E-3,3.67999983,,,,,-29.20000069E-3,7.19999981,
,,,-28.80000137E-3,3.75999999,,,,,-28.80000137E-3,7.19999981,
,,,-28.40000205E-3,3.67999983,,,,,-28.40000205E-3,7.19999981,
,,,-28.00000086E-3,3.67999983,,,,,-28.00000086E-3,7.19999981,
,,,-27.60000154E-3,3.67999983,,,,,-27.60000154E-3,6.99999952,
,,,-27.20000222E-3,3.75999999,,,,,-27.20000222E-3,7.19999981,
,,,-26.80000104E-3,3.67999983,,,,,-26.80000104E-3,7.19999981,
,,,-26.40000172E-3,3.75999999,,,,,-26.40000172E-3,7.19999981,
,,,-26.00000240E-3,3.75999999,,,,,-26.00000240E-3,7.19999981,
,,,-25.60000122E-3,3.75999999,,,,,-25.60000122E-3,7.19999981,
,,,-25.20000190E-3,3.75999999,,,,,-25.20000190E-3,6.99999952,
,,,-24.80000071E-3,3.75999999,,,,,-24.80000071E-3,6.99999952,
,,,-24.40000139E-3,3.67999983,,,,,-24.40000139E-3,7.19999981,
,,,-24.00000207E-3,3.75999999,,,,,-24.00000207E-3,6.99999952,
,,,-23.60000089E-3,3.75999999,,,,,-23.60000089E-3,7.19999981,
,,,-23.20000157E-3,3.75999999,,,,,-23.20000157E-3,7.19999981,
,,,-22.80000225E-3,3.75999999,,,,,-22.80000225E-3,6.99999952,
,,,-22.40000106E-3,3.75999999,,,,,-22.40000106E-3,6.99999952,
,,,-22.00000174E-3,3.75999999,,,,,-22.00000174E-3,7.19999981,
,,,-21.60000242E-3,3.75999999,,,,,-21.60000242E-3,6.99999952,
,,,-21.20000124E-3,3.75999999,,,,,-21.20000124E-3,7.19999981,
,,,-20.80000192E-3,3.75999999,,,,,-20.80000192E-3,6.99999952,
,,,-20.40000260E-3,3.75999999,,,,,-20.40000260E-3,6.99999952,
,,,-20.0000014E-3,3.75999999,,,,,-20.0000014E-3,7.19999981,
,,,-19.6000021E-3,3.75999999,,,,,-19.6000021E-3,7.19999981,
,,,-19.2000009E-3,3.75999999,,,,,-19.2000009E-3,7.19999981,
,,,-18.8000016E-3,3.75999999,,,,,-18.8000016E-3,7.19999981,
,,,-18.4000023E-3,3.75999999,,,,,-18.4000023E-3,6.99999952,
,,,-18.0000011E-3,3.75999999,,,,,-18.0000011E-3,6.99999952,
,,,-17.6000018E-3,3.75999999,,,,,-17.6000018E-3,6.99999952,
,,,-17.2000024E-3,3.75999999,,,,,-17.2000024E-3,6.99999952,
,,,-16.8000013E-3,3.75999999,,,,,-16.8000013E-3,7.19999981,
,,,-16.4000019E-3,3.75999999,,,,,-16.4000019E-3,6.99999952,
,,,-16.0000026E-3,3.83999991,,,,,-16.0000026E-3,6.99999952,
,,,-15.6000014E-3,3.75999999,,,,,-15.6000014E-3,7.19999981,
,,,-15.2000021E-3,3.75999999,,,,,-15.2000021E-3,7.19999981,
,,,-14.8000019E-3,3.75999999,,,,,-14.8000019E-3,6.99999952,
,,,-14.4000016E-3,3.75999999,,,,,-14.4000016E-3,6.99999952,
,,,-14.0000023E-3,3.75999999,,,,,-14.0000023E-3,6.99999952,
,,,-13.6000020E-3,3.75999999,,,,,-13.6000020E-3,6.99999952,
,,,-13.2000018E-3,3.83999991,,,,,-13.2000018E-3,7.19999981,
,,,-12.8000015E-3,3.75999999,,,,,-12.8000015E-3,7.19999981,
,,,-12.4000022E-3,3.75999999,,,,,-12.4000022E-3,6.99999952,
,,,-12.0000020E-3,3.75999999,,,,,-12.0000020E-3,6.99999952,
,,,-11.6000017E-3,3.75999999,,,,,-11.6000017E-3,6.79999971,
,,,-11.2000015E-3,3.75999999,,,,,-11.2000015E-3,6.99999952,
,,,-10.8000021E-3,3.75999999,,,,,-10.8000021E-3,7.19999981,
,,,-10.4000019E-3,3.75999999,,,,,-10.4000019E-3,7.19999981,
,,,-10.0000016E-3,3.75999999,,,,,-10.0000016E-3,7.19999981,
,,,-9.600002319E-3,3.75999999,,,,,-9.600002319E-3,6.99999952,
,,,-9.200002067E-3,3.83999991,,,,,-9.200002067E-3,7.19999981,
,,,-8.800001815E-3,3.75999999,,,,,-8.800001815E-3,7.19999981,
,,,-8.400001563E-3,3.75999999,,,,,-8.400001563E-3,7.19999981,
,,,-8.000002243E-3,3.75999999,,,,,-8.000002243E-3,7.19999981,
,,,-7.600001991E-3,3.75999999,,,,,-7.600001991E-3,7.19999981,
,,,-7.20000220E-3,3.75999999,,,,,-7.20000220E-3,6.99999952,
,,,-6.80000195E-3,3.75999999,,,,,-6.80000195E-3,7.19999981,
,,,-6.40000217E-3,3.75999999,,,,,-6.40000217E-3,6.99999952,
,,,-6.00000191E-3,3.83999991,,,,,-6.00000191E-3,7.19999981,
,,,-5.60000213E-3,3.75999999,,,,,-5.60000213E-3,6.99999952,
,,,-5.20000188E-3,3.75999999,,,,,-5.20000188E-3,7.19999981,
,,,-4.80000209E-3,3.75999999,,,,,-4.80000209E-3,7.19999981,
,,,-4.40000184E-3,3.83999991,,,,,-4.40000184E-3,6.99999952,
,,,-4.00000205E-3,3.75999999,,,,,-4.00000205E-3,6.99999952,
,,,-3.60000203E-3,3.83999991,,,,,-3.60000203E-3,6.79999971,
,,,-3.20000201E-3,3.83999991,,,,,-3.20000201E-3,7.19999981,
,,,-2.80000223E-3,3.75999999,,,,,-2.80000223E-3,6.99999952,
,,,-2.4000022E-3,3.83999991,,,,,-2.4000022E-3,6.99999952,
,,,-2.0000022E-3,3.75999999,,,,,-2.0000022E-3,6.99999952,
,,,-1.6000022E-3,3.75999999,,,,,-1.6000022E-3,6.79999971,
,,,-1.2000022E-3,3.43999982,,,,,-1.2000022E-3,6.99999952,
,,,-800.002133474E-6,2.87999988,,,,,-800.002133474E-6,7.19999981,
,,,-400.00217268E-6,2.3199999,,,,,-400.00217268E-6,7.19999981,
,,,-2.1827873E-9,1.9200000,,,,,-2.1827873E-9,7.19999981,
,,,399.99780711E-6,1.5200000,,,,,399.99780711E-6,7.19999981,
,,,799.997826107E-6,1.1200000,,,,,799.997826107E-6,6.99999952,
,,,1.1999977E-3,799.999952316E-3,,,,,1.1999977E-3,6.99999952,
,,,1.5999977E-3,639.999985695E-3,,,,,1.5999977E-3,6.79999971,
,,,1.9999978E-3,479.999989271E-3,,,,,1.9999978E-3,6.99999952,
,,,2.3999978E-3,319.99999285E-3,,,,,2.3999978E-3,6.79999971,
,,,2.79999780E-3,239.99999464E-3,,,,,2.79999780E-3,6.79999971,
,,,3.19999782E-3,239.99999464E-3,,,,,3.19999782E-3,6.59999943,
,,,3.59999761E-3,159.99999642E-3,,,,,3.59999761E-3,6.39999962,
,,,3.99999786E-3,159.99999642E-3,,,,,3.99999786E-3,6.39999962,
,,,4.39999765E-3,159.99999642E-3,,,,,4.39999765E-3,6.39999962,
,,,4.79999790E-3,79.999998212E-3,,,,,4.79999790E-3,6.19999981,
,,,5.19999769E-3,79.999998212E-3,,,,,5.19999769E-3,5.99999952,
,,,5.59999747E-3,79.999998212E-3,,,,,5.59999747E-3,5.99999952,
,,,5.99999772E-3,0.0,,,,,5.99999772E-3,5.79999971,
,,,6.39999751E-3,79.999998212E-3,,,,,6.39999751E-3,5.79999971,
,,,6.79999776E-3,79.999998212E-3,,,,,6.79999776E-3,5.39999962,
,,,7.19999755E-3,79.999998212E-3,,,,,7.19999755E-3,5.59999943,
,,,7.599997800E-3,79.999998212E-3,,,,,7.599997800E-3,5.39999962,
,,,7.999997586E-3,79.999998212E-3,,,,,7.999997586E-3,5.39999962,
,,,8.399997838E-3,79.999998212E-3,,,,,8.399997838E-3,5.19999981,
,,,8.799997158E-3,79.999998212E-3,,,,,8.799997158E-3,4.99999952,
,,,9.199997410E-3,0.0,,,,,9.199997410E-3,4.79999971,
,,,9.599997662E-3,79.999998212E-3,,,,,9.599997662E-3,4.59999990,
,,,9.999997914E-3,79.999998212E-3,,,,,9.999997914E-3,4.59999990,
,,,10.3999972E-3,0.0,,,,,10.3999972E-3,4.59999990,
,,,10.7999975E-3,79.999998212E-3,,,,,10.7999975E-3,4.19999981,
,,,11.1999977E-3,79.999998212E-3,,,,,11.1999977E-3,4.19999981,
,,,11.5999971E-3,79.999998212E-3,,,,,11.5999971E-3,4.19999981,
,,,11.9999973E-3,79.999998212E-3,,,,,11.9999973E-3,3.99999976,
,,,12.3999976E-3,79.999998212E-3,,,,,12.3999976E-3,3.79999971,
,,,12.7999978E-3,79.999998212E-3,,,,,12.7999978E-3,3.79999971,
,,,13.1999971E-3,79.999998212E-3,,,,,13.1999971E-3,3.59999990,
,,,13.5999974E-3,79.999998212E-3,,,,,13.5999974E-3,3.59999990,
,,,13.9999976E-3,79.999998212E-3,,,,,13.9999976E-3,3.59999990,
