He_Ne_laser/opticalpumping/87risetrigger.csv

Record Length,2500,Points,-125.0000000E-3,84.000000000,,Record Length,2500,Points,-125.0000000E-3,-9.600000381,
Sample Interval,99.999997474E-6,s,-124.8999983E-3,80.000000000,,Sample Interval,99.999997474E-6,s,-124.8999983E-3,-10.4000006,
Trigger Point,1.2500001E3,Samples,-124.7999966E-3,80.000000000,,Trigger Point,1.2500001E3,Samples,-124.7999966E-3,-9.600000381,
,,,-124.7000024E-3,80.000000000,,,,,-124.7000024E-3,-10.4000006,
,,,-124.6000007E-3,80.000000000,,,,,-124.6000007E-3,-9.600000381,
,,,-124.4999990E-3,80.000000000,,,,,-124.4999990E-3,-9.600000381,
Source,CH1,,-124.3999973E-3,80.000000000,,Source,CH2,,-124.3999973E-3,-9.600000381,
Vertical Units,Volts,,-124.3000031E-3,80.000000000,,Vertical Units,Volts,,-124.3000031E-3,-10.4000006,
Vertical Scale,102.3906250,,-124.2000014E-3,80.000000000,,Vertical Scale,20.47812531,,-124.2000014E-3,-9.600000381,
Vertical Offset,0,,-124.0999997E-3,80.000000000,,Vertical Offset,0,,-124.0999997E-3,-9.600000381,
Horizontal Units,s,,-123.9999980E-3,80.000000000,,Horizontal Units,s,,-123.9999980E-3,-9.600000381,
Horizontal Scale,24.99999937E-3,,-123.9000037E-3,80.000000000,,Horizontal Scale,24.99999937E-3,,-123.9000037E-3,-9.600000381,
Pt Fmt,Y,,-123.8000020E-3,80.000000000,,Pt Fmt,Y,,-123.8000020E-3,-10.4000006,
Yzero,1.4063788,,-123.7000003E-3,84.000000000,,Yzero,429.726842667E-3,,-123.7000003E-3,-9.600000381,
Probe Atten,20.0000000,,-123.5999987E-3,84.000000000,,Probe Atten,10.0000000,,-123.5999987E-3,-9.600000381,
,,,-123.4999970E-3,80.000000000,,,,,-123.4999970E-3,-10.4000006,
Note,TDS 2012C - 15:12:18   20.01.2025,,-123.4000027E-3,84.000000000,,Note,TDS 2012C - 15:12:18   20.01.2025,,-123.4000027E-3,-9.600000381,
,,,-123.3000010E-3,80.000000000,,,,,-123.3000010E-3,-9.600000381,
,,,-123.1999993E-3,84.000000000,,,,,-123.1999993E-3,-9.600000381,
,,,-123.0999976E-3,80.000000000,,,,,-123.0999976E-3,-9.600000381,
,,,-123.0000034E-3,84.000000000,,,,,-123.0000034E-3,-10.4000006,
,,,-122.9000017E-3,80.000000000,,,,,-122.9000017E-3,-9.600000381,
,,,-122.8000000E-3,80.000000000,,,,,-122.8000000E-3,-9.600000381,
,,,-122.6999983E-3,80.000000000,,,,,-122.6999983E-3,-10.4000006,
,,,-122.5999966E-3,80.000000000,,,,,-122.5999966E-3,-9.600000381,
,,,-122.5000024E-3,80.000000000,,,,,-122.5000024E-3,-10.4000006,
,,,-122.4000007E-3,84.000000000,,,,,-122.4000007E-3,-10.4000006,
,,,-122.2999990E-3,80.000000000,,,,,-122.2999990E-3,-10.4000006,
,,,-122.1999973E-3,80.000000000,,,,,-122.1999973E-3,-9.600000381,
,,,-122.1000031E-3,80.000000000,,,,,-122.1000031E-3,-10.4000006,
,,,-122.0000014E-3,80.000000000,,,,,-122.0000014E-3,-10.4000006,
,,,-121.8999997E-3,80.000000000,,,,,-121.8999997E-3,-10.4000006,
,,,-121.7999980E-3,84.000000000,,,,,-121.7999980E-3,-10.4000006,
,,,-121.7000037E-3,80.000000000,,,,,-121.7000037E-3,-10.4000006,
,,,-121.6000021E-3,80.000000000,,,,,-121.6000021E-3,-9.600000381,
,,,-121.5000004E-3,80.000000000,,,,,-121.5000004E-3,-10.4000006,
,,,-121.3999987E-3,80.000000000,,,,,-121.3999987E-3,-9.600000381,
,,,-121.2999970E-3,80.000000000,,,,,-121.2999970E-3,-9.600000381,
,,,-121.2000027E-3,80.000000000,,,,,-121.2000027E-3,-9.600000381,
,,,-121.1000010E-3,80.000000000,,,,,-121.1000010E-3,-9.600000381,
,,,-120.9999993E-3,80.000000000,,,,,-120.9999993E-3,-9.600000381,
,,,-120.8999977E-3,80.000000000,,,,,-120.8999977E-3,-9.600000381,
,,,-120.8000034E-3,80.000000000,,,,,-120.8000034E-3,-9.600000381,
,,,-120.7000017E-3,80.000000000,,,,,-120.7000017E-3,-9.600000381,
,,,-120.6000000E-3,80.000000000,,,,,-120.6000000E-3,-9.600000381,
,,,-120.4999983E-3,80.000000000,,,,,-120.4999983E-3,-9.600000381,
,,,-120.3999966E-3,80.000000000,,,,,-120.3999966E-3,-9.600000381,
,,,-120.3000024E-3,80.000000000,,,,,-120.3000024E-3,-9.600000381,
,,,-120.2000007E-3,84.000000000,,,,,-120.2000007E-3,-9.600000381,
,,,-120.0999990E-3,80.000000000,,,,,-120.0999990E-3,-9.600000381,
,,,-119.9999973E-3,84.000000000,,,,,-119.9999973E-3,-9.600000381,
,,,-119.9000031E-3,80.000000000,,,,,-119.9000031E-3,-9.600000381,
,,,-119.8000014E-3,80.000000000,,,,,-119.8000014E-3,-9.600000381,
,,,-119.6999997E-3,80.000000000,,,,,-119.6999997E-3,-9.600000381,
,,,-119.5999980E-3,80.000000000,,,,,-119.5999980E-3,-9.600000381,
,,,-119.5000038E-3,80.000000000,,,,,-119.5000038E-3,-9.600000381,
,,,-119.4000021E-3,80.000000000,,,,,-119.4000021E-3,-8.800000191,
,,,-119.3000004E-3,80.000000000,,,,,-119.3000004E-3,-9.600000381,
,,,-119.1999987E-3,84.000000000,,,,,-119.1999987E-3,-9.600000381,
,,,-119.0999970E-3,80.000000000,,,,,-119.0999970E-3,-9.600000381,
,,,-119.0000027E-3,84.000000000,,,,,-119.0000027E-3,-9.600000381,
,,,-118.9000010E-3,80.000000000,,,,,-118.9000010E-3,-9.600000381,
,,,-118.7999994E-3,80.000000000,,,,,-118.7999994E-3,-9.600000381,
,,,-118.6999977E-3,80.000000000,,,,,-118.6999977E-3,-8.800000191,
,,,-118.6000034E-3,80.000000000,,,,,-118.6000034E-3,-9.600000381,
,,,-118.5000017E-3,80.000000000,,,,,-118.5000017E-3,-9.600000381,
,,,-118.4000000E-3,80.000000000,,,,,-118.4000000E-3,-9.600000381,
,,,-118.2999983E-3,80.000000000,,,,,-118.2999983E-3,-9.600000381,
,,,-118.1999967E-3,80.000000000,,,,,-118.1999967E-3,-9.600000381,
,,,-118.1000024E-3,80.000000000,,,,,-118.1000024E-3,-9.600000381,
,,,-118.0000007E-3,80.000000000,,,,,-118.0000007E-3,-9.600000381,
,,,-117.8999990E-3,80.000000000,,,,,-117.8999990E-3,-9.600000381,
,,,-117.7999973E-3,80.000000000,,,,,-117.7999973E-3,-9.600000381,
,,,-117.7000031E-3,80.000000000,,,,,-117.7000031E-3,-9.600000381,
,,,-117.6000014E-3,80.000000000,,,,,-117.6000014E-3,-9.600000381,
,,,-117.4999997E-3,80.000000000,,,,,-117.4999997E-3,-9.600000381,
,,,-117.3999980E-3,80.000000000,,,,,-117.3999980E-3,-9.600000381,
,,,-117.3000038E-3,80.000000000,,,,,-117.3000038E-3,-9.600000381,
,,,-117.2000021E-3,84.000000000,,,,,-117.2000021E-3,-9.600000381,
,,,-117.1000004E-3,84.000000000,,,,,-117.1000004E-3,-10.4000006,
,,,-116.9999987E-3,80.000000000,,,,,-116.9999987E-3,-9.600000381,
,,,-116.8999970E-3,84.000000000,,,,,-116.8999970E-3,-9.600000381,
,,,-116.8000028E-3,80.000000000,,,,,-116.8000028E-3,-9.600000381,
,,,-116.7000011E-3,80.000000000,,,,,-116.7000011E-3,-9.600000381,
,,,-116.5999994E-3,80.000000000,,,,,-116.5999994E-3,-9.600000381,
,,,-116.4999977E-3,80.000000000,,,,,-116.4999977E-3,-9.600000381,
,,,-116.4000034E-3,80.000000000,,,,,-116.4000034E-3,-9.600000381,
,,,-116.3000017E-3,80.000000000,,,,,-116.3000017E-3,-9.600000381,
,,,-116.2000000E-3,80.000000000,,,,,-116.2000000E-3,-10.4000006,
,,,-116.0999984E-3,80.000000000,,,,,-116.0999984E-3,-9.600000381,
,,,-115.9999967E-3,80.000000000,,,,,-115.9999967E-3,-9.600000381,
,,,-115.9000024E-3,80.000000000,,,,,-115.9000024E-3,-10.4000006,
,,,-115.8000007E-3,84.000000000,,,,,-115.8000007E-3,-9.600000381,
,,,-115.6999990E-3,80.000000000,,,,,-115.6999990E-3,-9.600000381,
,,,-115.5999973E-3,80.000000000,,,,,-115.5999973E-3,-9.600000381,
,,,-115.5000031E-3,80.000000000,,,,,-115.5000031E-3,-9.600000381,
,,,-115.4000014E-3,80.000000000,,,,,-115.4000014E-3,-9.600000381,
,,,-115.2999997E-3,80.000000000,,,,,-115.2999997E-3,-9.600000381,
,,,-115.1999980E-3,84.000000000,,,,,-115.1999980E-3,-10.4000006,
,,,-115.1000038E-3,80.000000000,,,,,-115.1000038E-3,-9.600000381,
,,,-115.0000021E-3,80.000000000,,,,,-115.0000021E-3,-9.600000381,
,,,-114.9000004E-3,84.000000000,,,,,-114.9000004E-3,-9.600000381,
,,,-114.7999987E-3,80.000000000,,,,,-114.7999987E-3,-9.600000381,
,,,-114.6999970E-3,80.000000000,,,,,-114.6999970E-3,-9.600000381,
,,,-114.6000028E-3,80.000000000,,,,,-114.6000028E-3,-9.600000381,
,,,-114.5000011E-3,80.000000000,,,,,-114.5000011E-3,-9.600000381,
,,,-114.3999994E-3,80.000000000,,,,,-114.3999994E-3,-9.600000381,
,,,-114.2999977E-3,80.000000000,,,,,-114.2999977E-3,-9.600000381,
,,,-114.2000034E-3,80.000000000,,,,,-114.2000034E-3,-9.600000381,
,,,-114.1000018E-3,84.000000000,,,,,-114.1000018E-3,-9.600000381,
,,,-114.0000001E-3,80.000000000,,,,,-114.0000001E-3,-9.600000381,
,,,-113.8999984E-3,84.000000000,,,,,-113.8999984E-3,-9.600000381,
,,,-113.7999967E-3,80.000000000,,,,,-113.7999967E-3,-9.600000381,
,,,-113.7000024E-3,80.000000000,,,,,-113.7000024E-3,-9.600000381,
,,,-113.6000007E-3,80.000000000,,,,,-113.6000007E-3,-9.600000381,
,,,-113.4999990E-3,80.000000000,,,,,-113.4999990E-3,-9.600000381,
,,,-113.3999974E-3,80.000000000,,,,,-113.3999974E-3,-9.600000381,
,,,-113.3000031E-3,80.000000000,,,,,-113.3000031E-3,-9.600000381,
,,,-113.2000014E-3,80.000000000,,,,,-113.2000014E-3,-9.600000381,
,,,-113.0999997E-3,84.000000000,,,,,-113.0999997E-3,-9.600000381,
,,,-112.9999980E-3,80.000000000,,,,,-112.9999980E-3,-9.600000381,
,,,-112.9000038E-3,80.000000000,,,,,-112.9000038E-3,-9.600000381,
,,,-112.8000021E-3,80.000000000,,,,,-112.8000021E-3,-9.600000381,
,,,-112.7000004E-3,80.000000000,,,,,-112.7000004E-3,-9.600000381,
,,,-112.5999987E-3,80.000000000,,,,,-112.5999987E-3,-9.600000381,
,,,-112.4999970E-3,80.000000000,,,,,-112.4999970E-3,-9.600000381,
,,,-112.4000028E-3,80.000000000,,,,,-112.4000028E-3,-9.600000381,
,,,-112.3000011E-3,80.000000000,,,,,-112.3000011E-3,-9.600000381,
,,,-112.1999994E-3,80.000000000,,,,,-112.1999994E-3,-9.600000381,
,,,-112.0999977E-3,84.000000000,,,,,-112.0999977E-3,-9.600000381,
,,,-112.0000035E-3,80.000000000,,,,,-112.0000035E-3,-9.600000381,
,,,-111.9000018E-3,80.000000000,,,,,-111.9000018E-3,-9.600000381,
,,,-111.8000001E-3,80.000000000,,,,,-111.8000001E-3,-9.600000381,
,,,-111.6999984E-3,80.000000000,,,,,-111.6999984E-3,-9.600000381,
,,,-111.5999967E-3,80.000000000,,,,,-111.5999967E-3,-9.600000381,
,,,-111.5000024E-3,80.000000000,,,,,-111.5000024E-3,-9.600000381,
,,,-111.4000008E-3,84.000000000,,,,,-111.4000008E-3,-8.800000191,
,,,-111.2999991E-3,80.000000000,,,,,-111.2999991E-3,-9.600000381,
,,,-111.1999974E-3,80.000000000,,,,,-111.1999974E-3,-9.600000381,
,,,-111.1000031E-3,80.000000000,,,,,-111.1000031E-3,-9.600000381,
,,,-111.0000014E-3,84.000000000,,,,,-111.0000014E-3,-9.600000381,
,,,-110.8999997E-3,84.000000000,,,,,-110.8999997E-3,-9.600000381,
,,,-110.7999980E-3,80.000000000,,,,,-110.7999980E-3,-9.600000381,
,,,-110.7000038E-3,80.000000000,,,,,-110.7000038E-3,-9.600000381,
,,,-110.6000021E-3,80.000000000,,,,,-110.6000021E-3,-9.600000381,
,,,-110.5000004E-3,84.000000000,,,,,-110.5000004E-3,-9.600000381,
,,,-110.3999987E-3,80.000000000,,,,,-110.3999987E-3,-9.600000381,
,,,-110.2999970E-3,80.000000000,,,,,-110.2999970E-3,-9.600000381,
,,,-110.2000028E-3,80.000000000,,,,,-110.2000028E-3,-9.600000381,
,,,-110.1000011E-3,84.000000000,,,,,-110.1000011E-3,-10.4000006,
,,,-109.9999994E-3,84.000000000,,,,,-109.9999994E-3,-10.4000006,
,,,-109.8999977E-3,80.000000000,,,,,-109.8999977E-3,-10.4000006,
,,,-109.8000035E-3,80.000000000,,,,,-109.8000035E-3,-9.600000381,
,,,-109.7000018E-3,84.000000000,,,,,-109.7000018E-3,-9.600000381,
,,,-109.6000001E-3,80.000000000,,,,,-109.6000001E-3,-9.600000381,
,,,-109.4999984E-3,80.000000000,,,,,-109.4999984E-3,-10.4000006,
,,,-109.3999967E-3,80.000000000,,,,,-109.3999967E-3,-9.600000381,
,,,-109.3000025E-3,80.000000000,,,,,-109.3000025E-3,-9.600000381,
,,,-109.2000008E-3,80.000000000,,,,,-109.2000008E-3,-9.600000381,
,,,-109.0999991E-3,80.000000000,,,,,-109.0999991E-3,-9.600000381,
,,,-108.9999974E-3,80.000000000,,,,,-108.9999974E-3,-10.4000006,
,,,-108.9000031E-3,80.000000000,,,,,-108.9000031E-3,-9.600000381,
,,,-108.8000014E-3,80.000000000,,,,,-108.8000014E-3,-9.600000381,
,,,-108.6999997E-3,80.000000000,,,,,-108.6999997E-3,-10.4000006,
,,,-108.5999981E-3,84.000000000,,,,,-108.5999981E-3,-9.600000381,
,,,-108.5000038E-3,80.000000000,,,,,-108.5000038E-3,-9.600000381,
,,,-108.4000021E-3,80.000000000,,,,,-108.4000021E-3,-10.4000006,
,,,-108.3000004E-3,80.000000000,,,,,-108.3000004E-3,-9.600000381,
,,,-108.1999987E-3,80.000000000,,,,,-108.1999987E-3,-9.600000381,
,,,-108.0999970E-3,80.000000000,,,,,-108.0999970E-3,-9.600000381,
,,,-108.0000028E-3,80.000000000,,,,,-108.0000028E-3,-9.600000381,
,,,-107.9000011E-3,84.000000000,,,,,-107.9000011E-3,-9.600000381,
,,,-107.7999994E-3,80.000000000,,,,,-107.7999994E-3,-9.600000381,
,,,-107.6999977E-3,80.000000000,,,,,-107.6999977E-3,-9.600000381,
,,,-107.6000035E-3,80.000000000,,,,,-107.6000035E-3,-9.600000381,
,,,-107.5000018E-3,84.000000000,,,,,-107.5000018E-3,-9.600000381,
,,,-107.4000001E-3,84.000000000,,,,,-107.4000001E-3,-9.600000381,
,,,-107.2999984E-3,80.000000000,,,,,-107.2999984E-3,-9.600000381,
,,,-107.2000042E-3,80.000000000,,,,,-107.2000042E-3,-9.600000381,
,,,-107.1000025E-3,80.000000000,,,,,-107.1000025E-3,-9.600000381,
,,,-107.0000008E-3,80.000000000,,,,,-107.0000008E-3,-9.600000381,
,,,-106.8999991E-3,80.000000000,,,,,-106.8999991E-3,-9.600000381,
,,,-106.7999974E-3,80.000000000,,,,,-106.7999974E-3,-9.600000381,
,,,-106.7000031E-3,80.000000000,,,,,-106.7000031E-3,-9.600000381,
,,,-106.6000015E-3,80.000000000,,,,,-106.6000015E-3,-9.600000381,
,,,-106.4999998E-3,84.000000000,,,,,-106.4999998E-3,-9.600000381,
,,,-106.3999981E-3,80.000000000,,,,,-106.3999981E-3,-9.600000381,
,,,-106.3000038E-3,84.000000000,,,,,-106.3000038E-3,-9.600000381,
,,,-106.2000021E-3,84.000000000,,,,,-106.2000021E-3,-9.600000381,
,,,-106.1000004E-3,80.000000000,,,,,-106.1000004E-3,-9.600000381,
,,,-105.9999987E-3,80.000000000,,,,,-105.9999987E-3,-9.600000381,
,,,-105.8999971E-3,80.000000000,,,,,-105.8999971E-3,-9.600000381,
,,,-105.8000028E-3,84.000000000,,,,,-105.8000028E-3,-9.600000381,
,,,-105.7000011E-3,80.000000000,,,,,-105.7000011E-3,-9.600000381,
,,,-105.5999994E-3,80.000000000,,,,,-105.5999994E-3,-9.600000381,
,,,-105.4999977E-3,80.000000000,,,,,-105.4999977E-3,-9.600000381,
,,,-105.4000035E-3,80.000000000,,,,,-105.4000035E-3,-9.600000381,
,,,-105.3000018E-3,80.000000000,,,,,-105.3000018E-3,-9.600000381,
,,,-105.2000001E-3,80.000000000,,,,,-105.2000001E-3,-9.600000381,
,,,-105.0999984E-3,84.000000000,,,,,-105.0999984E-3,-9.600000381,
,,,-105.0000042E-3,80.000000000,,,,,-105.0000042E-3,-9.600000381,
,,,-104.9000025E-3,84.000000000,,,,,-104.9000025E-3,-9.600000381,
,,,-104.8000008E-3,80.000000000,,,,,-104.8000008E-3,-9.600000381,
,,,-104.6999991E-3,80.000000000,,,,,-104.6999991E-3,-8.800000191,
,,,-104.5999974E-3,80.000000000,,,,,-104.5999974E-3,-9.600000381,
,,,-104.5000032E-3,80.000000000,,,,,-104.5000032E-3,-9.600000381,
,,,-104.4000015E-3,80.000000000,,,,,-104.4000015E-3,-9.600000381,
,,,-104.2999998E-3,80.000000000,,,,,-104.2999998E-3,-9.600000381,
,,,-104.1999981E-3,80.000000000,,,,,-104.1999981E-3,-9.600000381,
,,,-104.1000038E-3,80.000000000,,,,,-104.1000038E-3,-9.600000381,
,,,-104.0000021E-3,80.000000000,,,,,-104.0000021E-3,-9.600000381,
,,,-103.9000005E-3,80.000000000,,,,,-103.9000005E-3,-9.600000381,
,,,-103.7999988E-3,80.000000000,,,,,-103.7999988E-3,-9.600000381,
,,,-103.6999971E-3,84.000000000,,,,,-103.6999971E-3,-9.600000381,
,,,-103.6000028E-3,80.000000000,,,,,-103.6000028E-3,-9.600000381,
,,,-103.5000011E-3,80.000000000,,,,,-103.5000011E-3,-9.600000381,
,,,-103.3999994E-3,80.000000000,,,,,-103.3999994E-3,-9.600000381,
,,,-103.2999977E-3,80.000000000,,,,,-103.2999977E-3,-9.600000381,
,,,-103.2000035E-3,84.000000000,,,,,-103.2000035E-3,-9.600000381,
,,,-103.1000018E-3,84.000000000,,,,,-103.1000018E-3,-9.600000381,
,,,-103.0000001E-3,84.000000000,,,,,-103.0000001E-3,-10.4000006,
,,,-102.8999984E-3,84.000000000,,,,,-102.8999984E-3,-9.600000381,
,,,-102.8000042E-3,80.000000000,,,,,-102.8000042E-3,-9.600000381,
,,,-102.7000025E-3,80.000000000,,,,,-102.7000025E-3,-9.600000381,
,,,-102.6000008E-3,80.000000000,,,,,-102.6000008E-3,-9.600000381,
,,,-102.4999991E-3,80.000000000,,,,,-102.4999991E-3,-9.600000381,
,,,-102.3999974E-3,80.000000000,,,,,-102.3999974E-3,-9.600000381,
,,,-102.3000032E-3,80.000000000,,,,,-102.3000032E-3,-10.4000006,
,,,-102.2000015E-3,80.000000000,,,,,-102.2000015E-3,-9.600000381,
,,,-102.0999998E-3,84.000000000,,,,,-102.0999998E-3,-9.600000381,
,,,-101.9999981E-3,80.000000000,,,,,-101.9999981E-3,-10.4000006,
,,,-101.9000039E-3,84.000000000,,,,,-101.9000039E-3,-9.600000381,
,,,-101.8000022E-3,80.000000000,,,,,-101.8000022E-3,-9.600000381,
,,,-101.7000005E-3,80.000000000,,,,,-101.7000005E-3,-9.600000381,
,,,-101.5999988E-3,80.000000000,,,,,-101.5999988E-3,-9.600000381,
,,,-101.4999971E-3,80.000000000,,,,,-101.4999971E-3,-9.600000381,
,,,-101.4000028E-3,80.000000000,,,,,-101.4000028E-3,-10.4000006,
,,,-101.3000011E-3,80.000000000,,,,,-101.3000011E-3,-10.4000006,
,,,-101.1999995E-3,80.000000000,,,,,-101.1999995E-3,-9.600000381,
,,,-101.0999978E-3,80.000000000,,,,,-101.0999978E-3,-9.600000381,
,,,-101.0000035E-3,80.000000000,,,,,-101.0000035E-3,-9.600000381,
,,,-100.9000018E-3,84.000000000,,,,,-100.9000018E-3,-10.4000006,
,,,-100.8000001E-3,80.000000000,,,,,-100.8000001E-3,-9.600000381,
,,,-100.6999984E-3,80.000000000,,,,,-100.6999984E-3,-9.600000381,
,,,-100.6000042E-3,80.000000000,,,,,-100.6000042E-3,-9.600000381,
,,,-100.5000025E-3,80.000000000,,,,,-100.5000025E-3,-9.600000381,
,,,-100.4000008E-3,80.000000000,,,,,-100.4000008E-3,-9.600000381,
,,,-100.2999991E-3,84.000000000,,,,,-100.2999991E-3,-9.600000381,
,,,-100.1999974E-3,80.000000000,,,,,-100.1999974E-3,-8.800000191,
,,,-100.1000032E-3,84.000000000,,,,,-100.1000032E-3,-9.600000381,
,,,-100.0000015E-3,80.000000000,,,,,-100.0000015E-3,-8.800000191,
,,,-99.899999797E-3,80.000000000,,,,,-99.899999797E-3,-9.600000381,
,,,-99.799998105E-3,80.000000000,,,,,-99.799998105E-3,-9.600000381,
,,,-99.700003862E-3,80.000000000,,,,,-99.700003862E-3,-9.600000381,
,,,-99.600002170E-3,80.000000000,,,,,-99.600002170E-3,-9.600000381,
,,,-99.500000477E-3,80.000000000,,,,,-99.500000477E-3,-8.800000191,
,,,-99.399998784E-3,80.000000000,,,,,-99.399998784E-3,-9.600000381,
,,,-99.299997091E-3,80.000000000,,,,,-99.299997091E-3,-9.600000381,
,,,-99.200002849E-3,80.000000000,,,,,-99.200002849E-3,-9.600000381,
,,,-99.100001156E-3,80.000000000,,,,,-99.100001156E-3,-9.600000381,
,,,-98.999999464E-3,80.000000000,,,,,-98.999999464E-3,-9.600000381,
,,,-98.899997771E-3,80.000000000,,,,,-98.899997771E-3,-9.600000381,
,,,-98.800003529E-3,84.000000000,,,,,-98.800003529E-3,-10.4000006,
,,,-98.700001836E-3,80.000000000,,,,,-98.700001836E-3,-9.600000381,
,,,-98.600000143E-3,80.000000000,,,,,-98.600000143E-3,-9.600000381,
,,,-98.499998450E-3,80.000000000,,,,,-98.499998450E-3,-9.600000381,
,,,-98.400004208E-3,80.000000000,,,,,-98.400004208E-3,-9.600000381,
,,,-98.300002515E-3,80.000000000,,,,,-98.300002515E-3,-9.600000381,
,,,-98.200000823E-3,80.000000000,,,,,-98.200000823E-3,-9.600000381,
,,,-98.099999130E-3,80.000000000,,,,,-98.099999130E-3,-9.600000381,
,,,-97.999997437E-3,80.000000000,,,,,-97.999997437E-3,-9.600000381,
,,,-97.900003195E-3,84.000000000,,,,,-97.900003195E-3,-9.600000381,
,,,-97.800001502E-3,84.000000000,,,,,-97.800001502E-3,-9.600000381,
,,,-97.699999809E-3,80.000000000,,,,,-97.699999809E-3,-9.600000381,
,,,-97.599998116E-3,80.000000000,,,,,-97.599998116E-3,-9.600000381,
,,,-97.500003874E-3,80.000000000,,,,,-97.500003874E-3,-9.600000381,
,,,-97.400002182E-3,80.000000000,,,,,-97.400002182E-3,-10.4000006,
,,,-97.300000489E-3,-8.000000000,,,,,-97.300000489E-3,-33.60000229,
,,,-97.199998796E-3,-8.000000000,,,,,-97.199998796E-3,-22.39999962,
,,,-97.099997103E-3,-12.0000000,,,,,-97.099997103E-3,-18.3999996,
,,,-97.000002861E-3,-8.000000000,,,,,-97.000002861E-3,-34.40000153,
,,,-96.900001168E-3,-12.0000000,,,,,-96.900001168E-3,-13.6000004,
,,,-96.799999475E-3,-8.000000000,,,,,-96.799999475E-3,-31.20000076,
,,,-96.699997783E-3,-12.0000000,,,,,-96.699997783E-3,-24.00000000,
,,,-96.600003541E-3,-8.000000000,,,,,-96.600003541E-3,-19.2000008,
,,,-96.500001848E-3,-8.000000000,,,,,-96.500001848E-3,-32.00000000,
,,,-96.400000155E-3,-8.000000000,,,,,-96.400000155E-3,-17.6000004,
,,,-96.299998462E-3,-8.000000000,,,,,-96.299998462E-3,-27.20000076,
,,,-96.200004220E-3,-8.000000000,,,,,-96.200004220E-3,-26.39999962,
,,,-96.100002527E-3,-8.000000000,,,,,-96.100002527E-3,-20.80000114,
,,,-96.000000834E-3,-8.000000000,,,,,-96.000000834E-3,-28.80000114,
,,,-95.899999142E-3,-8.000000000,,,,,-95.899999142E-3,-21.60000038,
,,,-95.799997449E-3,-12.0000000,,,,,-95.799997449E-3,-24.80000114,
