He_Ne_laser/TEK0009.CSV

Record Length,2.500000e+03,,   0.253000000000,   0.01600,
Sample Interval,1.000000e-04,,   0.253100000000,   0.01800,
Trigger Point,-2.530000000000e+03,,   0.253200000000,   0.01800,
,,,   0.253300000000,   0.02200,
,,,   0.253400000000,   0.02000,
,,,   0.253500000000,   0.02000,
Source,CH2,,   0.253600000000,   0.02200,
Vertical Units,V,,   0.253700000000,   0.02600,
Vertical Scale,5.000000e-02,,   0.253800000000,   0.02200,
Vertical Offset,-7.600000e-02,,   0.253900000000,   0.02600,
Horizontal Units,s,,   0.254000000000,   0.02800,
Horizontal Scale,2.500000e-02,,   0.254100000000,   0.02400,
Pt Fmt,Y,,   0.254200000000,   0.03600,
Yzero,0.000000e+00,,   0.254300000000,   0.03200,
Probe Atten,1.000000e+00,,   0.254400000000,   0.02800,
Model Number,TBS1022,,   0.254500000000,   0.03800,
Serial Number,C012212,,   0.254600000000,   0.03400,
Firmware Version,FV:v26.01,,   0.254700000000,   0.03000,
,,,0.254800000000,   0.03400,
,,,0.254900000000,   0.03000,
,,,0.255000000000,   0.03400,
,,,0.255100000000,   0.02800,
,,,0.255200000000,   0.03000,
,,,0.255300000000,   0.03800,
,,,0.255400000000,   0.02800,
,,,0.255500000000,   0.02800,
,,,0.255600000000,   0.03600,
,,,0.255700000000,   0.02600,
,,,0.255800000000,   0.03400,
,,,0.255900000000,   0.02800,
,,,0.256000000000,   0.03200,
,,,0.256100000000,   0.02800,
,,,0.256200000000,   0.03400,
,,,0.256300000000,   0.02800,
,,,0.256400000000,   0.03200,
,,,0.256500000000,   0.02600,
,,,0.256600000000,   0.02800,
,,,0.256700000000,   0.03000,
,,,0.256800000000,   0.03000,
,,,0.256900000000,   0.02800,
,,,0.257000000000,   0.03000,
,,,0.257100000000,   0.02600,
,,,0.257200000000,   0.03000,
,,,0.257300000000,   0.03200,
,,,0.257400000000,   0.02600,
,,,0.257500000000,   0.02600,
,,,0.257600000000,   0.02600,
,,,0.257700000000,   0.02600,
,,,0.257800000000,   0.02800,
,,,0.257900000000,   0.02600,
,,,0.258000000000,   0.02800,
,,,0.258100000000,   0.03000,
,,,0.258200000000,   0.03000,
,,,0.258300000000,   0.02600,
,,,0.258400000000,   0.02800,
,,,0.258500000000,   0.02800,
,,,0.258600000000,   0.02800,
,,,0.258700000000,   0.02800,
,,,0.258800000000,   0.02600,
,,,0.258900000000,   0.02600,
,,,0.259000000000,   0.02400,
,,,0.259100000000,   0.02600,
,,,0.259200000000,   0.02800,
,,,0.259300000000,   0.02800,
,,,0.259400000000,   0.02600,
,,,0.259500000000,   0.02800,
,,,0.259600000000,   0.03000,
,,,0.259700000000,   0.02400,
,,,0.259800000000,   0.03000,
,,,0.259900000000,   0.02400,
,,,0.260000000000,   0.02400,
,,,0.260100000000,   0.02800,
,,,0.260200000000,   0.02600,
,,,0.260300000000,   0.02600,
,,,0.260400000000,   0.02800,
,,,0.260500000000,   0.02200,
,,,0.260600000000,   0.02400,
,,,0.260700000000,   0.02200,
,,,0.260800000000,   0.02600,
,,,0.260900000000,   0.03000,
,,,0.261000000000,   0.02600,
,,,0.261100000000,   0.02200,
,,,0.261200000000,   0.02200,
,,,0.261300000000,   0.02800,
,,,0.261400000000,   0.02800,
,,,0.261500000000,   0.03000,
,,,0.261600000000,   0.02400,
,,,0.261700000000,   0.02800,
,,,0.261800000000,   0.03000,
,,,0.261900000000,   0.03600,
,,,0.262000000000,   0.03800,
,,,0.262100000000,   0.03400,
,,,0.262200000000,   0.04000,
,,,0.262300000000,   0.04600,
,,,0.262400000000,   0.03600,
,,,0.262500000000,   0.04200,
,,,0.262600000000,   0.05600,
,,,0.262700000000,   0.04400,
,,,0.262800000000,   0.04400,
,,,0.262900000000,   0.05400,
,,,0.263000000000,   0.04600,
,,,0.263100000000,   0.04800,
,,,0.263200000000,   0.06400,
,,,0.263300000000,   0.05800,
,,,0.263400000000,   0.06800,
,,,0.263500000000,   0.06600,
,,,0.263600000000,   0.06800,
,,,0.263700000000,   0.06200,
,,,0.263800000000,   0.05600,
,,,0.263900000000,   0.06800,
,,,0.264000000000,   0.06000,
,,,0.264100000000,   0.06200,
,,,0.264200000000,   0.05200,
,,,0.264300000000,   0.06000,
,,,0.264400000000,   0.05200,
,,,0.264500000000,   0.05000,
,,,0.264600000000,   0.06600,
,,,0.264700000000,   0.06600,
,,,0.264800000000,   0.05200,
,,,0.264900000000,   0.04000,
,,,0.265000000000,   0.04000,
,,,0.265100000000,   0.04800,
,,,0.265200000000,   0.04800,
,,,0.265300000000,   0.05000,
,,,0.265400000000,   0.05400,
,,,0.265500000000,   0.04400,
,,,0.265600000000,   0.04000,
,,,0.265700000000,   0.04000,
,,,0.265800000000,   0.05000,
,,,0.265900000000,   0.05400,
,,,0.266000000000,   0.05400,
,,,0.266100000000,   0.04600,
,,,0.266200000000,   0.04600,
,,,0.266300000000,   0.04400,
,,,0.266400000000,   0.05800,
,,,0.266500000000,   0.05200,
,,,0.266600000000,   0.05200,
,,,0.266700000000,   0.04600,
,,,0.266800000000,   0.05400,
,,,0.266900000000,   0.04800,
,,,0.267000000000,   0.03800,
,,,0.267100000000,   0.04600,
,,,0.267200000000,   0.05600,
,,,0.267300000000,   0.06600,
,,,0.267400000000,   0.05400,
,,,0.267500000000,   0.06200,
,,,0.267600000000,   0.05200,
,,,0.267700000000,   0.05000,
,,,0.267800000000,   0.05200,
,,,0.267900000000,   0.05800,
,,,0.268000000000,   0.05600,
,,,0.268100000000,   0.05000,
,,,0.268200000000,   0.05200,
,,,0.268300000000,   0.05200,
,,,0.268400000000,   0.04000,
,,,0.268500000000,   0.05400,
,,,0.268600000000,   0.06400,
,,,0.268700000000,   0.06000,
,,,0.268800000000,   0.05200,
,,,0.268900000000,   0.03400,
,,,0.269000000000,   0.05800,
,,,0.269100000000,   0.04600,
,,,0.269200000000,   0.05800,
,,,0.269300000000,   0.06400,
,,,0.269400000000,   0.04600,
,,,0.269500000000,   0.05000,
,,,0.269600000000,   0.04600,
,,,0.269700000000,   0.05600,
,,,0.269800000000,   0.04400,
,,,0.269900000000,   0.04200,
,,,0.270000000000,   0.05200,
,,,0.270100000000,   0.05400,
,,,0.270200000000,   0.04000,
,,,0.270300000000,   0.05800,
,,,0.270400000000,   0.05000,
,,,0.270500000000,   0.04400,
,,,0.270600000000,   0.05200,
,,,0.270700000000,   0.04400,
,,,0.270800000000,   0.04400,
,,,0.270900000000,   0.04200,
,,,0.271000000000,   0.04000,
,,,0.271100000000,   0.05600,
,,,0.271200000000,   0.04200,
,,,0.271300000000,   0.04000,
,,,0.271400000000,   0.04200,
,,,0.271500000000,   0.05000,
,,,0.271600000000,   0.04800,
,,,0.271700000000,   0.05400,
,,,0.271800000000,   0.04800,
,,,0.271900000000,   0.04800,
,,,0.272000000000,   0.06000,
,,,0.272100000000,   0.05600,
,,,0.272200000000,   0.05600,
,,,0.272300000000,   0.05200,
,,,0.272400000000,   0.06400,
,,,0.272500000000,   0.05400,
,,,0.272600000000,   0.05000,
,,,0.272700000000,   0.04800,
,,,0.272800000000,   0.04000,
,,,0.272900000000,   0.03600,
,,,0.273000000000,   0.04000,
,,,0.273100000000,   0.05800,
,,,0.273200000000,   0.04800,
,,,0.273300000000,   0.03600,
,,,0.273400000000,   0.03800,
,,,0.273500000000,   0.04400,
,,,0.273600000000,   0.03600,
,,,0.273700000000,   0.02800,
,,,0.273800000000,   0.03800,
,,,0.273900000000,   0.02000,
,,,0.274000000000,   0.03400,
,,,0.274100000000,   0.02600,
,,,0.274200000000,   0.02400,
,,,0.274300000000,   0.02200,
,,,0.274400000000,   0.02200,
,,,0.274500000000,   0.02200,
,,,0.274600000000,   0.02200,
,,,0.274700000000,   0.01400,
,,,0.274800000000,   0.02000,
,,,0.274900000000,   0.02000,
,,,0.275000000000,   0.01600,
,,,0.275100000000,   0.01800,
,,,0.275200000000,   0.01800,
,,,0.275300000000,   0.01600,
,,,0.275400000000,   0.02200,
,,,0.275500000000,   0.02000,
,,,0.275600000000,   0.01800,
,,,0.275700000000,   0.01800,
,,,0.275800000000,   0.01800,
,,,0.275900000000,   0.02200,
,,,0.276000000000,   0.02000,
,,,0.276100000000,   0.02200,
,,,0.276200000000,   0.01800,
,,,0.276300000000,   0.02600,
,,,0.276400000000,   0.02000,
,,,0.276500000000,   0.02200,
,,,0.276600000000,   0.02800,
,,,0.276700000000,   0.01800,
,,,0.276800000000,   0.02800,
,,,0.276900000000,   0.03200,
,,,0.277000000000,   0.02600,
,,,0.277100000000,   0.02800,
,,,0.277200000000,   0.03000,
,,,0.277300000000,   0.03800,
,,,0.277400000000,   0.05200,
,,,0.277500000000,   0.04400,
,,,0.277600000000,   0.04400,
,,,0.277700000000,   0.04000,
,,,0.277800000000,   0.06000,
,,,0.277900000000,   0.05600,
,,,0.278000000000,   0.09200,
,,,0.278100000000,   0.07000,
,,,0.278200000000,   0.08600,
,,,0.278300000000,   0.10200,
,,,0.278400000000,   0.09800,
,,,0.278500000000,   0.10200,
,,,0.278600000000,   0.10400,
,,,0.278700000000,   0.09000,
,,,0.278800000000,   0.11600,
,,,0.278900000000,   0.12800,
,,,0.279000000000,   0.10000,
,,,0.279100000000,   0.12000,
,,,0.279200000000,   0.11000,
,,,0.279300000000,   0.09000,
,,,0.279400000000,   0.12400,
,,,0.279500000000,   0.10200,
,,,0.279600000000,   0.09200,
,,,0.279700000000,   0.12200,
,,,0.279800000000,   0.09800,
,,,0.279900000000,   0.09000,
,,,0.280000000000,   0.11400,
,,,0.280100000000,   0.09200,
,,,0.280200000000,   0.08600,
,,,0.280300000000,   0.10000,
,,,0.280400000000,   0.09000,
,,,0.280500000000,   0.09800,
,,,0.280600000000,   0.09600,
,,,0.280700000000,   0.08800,
,,,0.280800000000,   0.10400,
,,,0.280900000000,   0.09400,
,,,0.281000000000,   0.09800,
,,,0.281100000000,   0.10600,
,,,0.281200000000,   0.07000,
,,,0.281300000000,   0.08400,
,,,0.281400000000,   0.09600,
,,,0.281500000000,   0.10400,
,,,0.281600000000,   0.07200,
,,,0.281700000000,   0.10600,
,,,0.281800000000,   0.08800,
,,,0.281900000000,   0.11000,
,,,0.282000000000,   0.10000,
,,,0.282100000000,   0.09400,
,,,0.282200000000,   0.10000,
,,,0.282300000000,   0.11600,
,,,0.282400000000,   0.07800,
,,,0.282500000000,   0.14000,
,,,0.282600000000,   0.08600,
,,,0.282700000000,   0.08400,
,,,0.282800000000,   0.10200,
,,,0.282900000000,   0.09800,
,,,0.283000000000,   0.06400,
,,,0.283100000000,   0.11600,
,,,0.283200000000,   0.10400,
,,,0.283300000000,   0.05600,
,,,0.283400000000,   0.09400,
,,,0.283500000000,   0.09400,
,,,0.283600000000,   0.11000,
,,,0.283700000000,   0.10000,
,,,0.283800000000,   0.09800,
,,,0.283900000000,   0.09000,
,,,0.284000000000,   0.09800,
,,,0.284100000000,   0.07600,
,,,0.284200000000,   0.09600,
,,,0.284300000000,   0.09800,
,,,0.284400000000,   0.08200,
,,,0.284500000000,   0.12400,
,,,0.284600000000,   0.06200,
,,,0.284700000000,   0.10600,
,,,0.284800000000,   0.10400,
,,,0.284900000000,   0.08600,
,,,0.285000000000,   0.08000,
,,,0.285100000000,   0.08000,
,,,0.285200000000,   0.08000,
,,,0.285300000000,   0.05200,
,,,0.285400000000,   0.08200,
,,,0.285500000000,   0.08400,
,,,0.285600000000,   0.11600,
,,,0.285700000000,   0.09000,
,,,0.285800000000,   0.08000,
,,,0.285900000000,   0.09400,
,,,0.286000000000,   0.10000,
,,,0.286100000000,   0.10200,
,,,0.286200000000,   0.10800,
,,,0.286300000000,   0.09800,
,,,0.286400000000,   0.12400,
,,,0.286500000000,   0.13400,
,,,0.286600000000,   0.10000,
,,,0.286700000000,   0.14200,
,,,0.286800000000,   0.09800,
,,,0.286900000000,   0.11400,
,,,0.287000000000,   0.09200,
,,,0.287100000000,   0.09600,
,,,0.287200000000,   0.09200,
,,,0.287300000000,   0.09600,
,,,0.287400000000,   0.09800,
,,,0.287500000000,   0.09400,
,,,0.287600000000,   0.08600,
,,,0.287700000000,   0.09200,
,,,0.287800000000,   0.10000,
,,,0.287900000000,   0.09400,
,,,0.288000000000,   0.07200,
,,,0.288100000000,   0.10200,
,,,0.288200000000,   0.08600,
,,,0.288300000000,   0.07200,
,,,0.288400000000,   0.08600,
,,,0.288500000000,   0.07600,
,,,0.288600000000,   0.07000,
,,,0.288700000000,   0.08000,
,,,0.288800000000,   0.07000,
,,,0.288900000000,   0.07200,
,,,0.289000000000,   0.07400,
,,,0.289100000000,   0.05800,
,,,0.289200000000,   0.06200,
,,,0.289300000000,   0.05800,
,,,0.289400000000,   0.05000,
,,,0.289500000000,   0.05800,
,,,0.289600000000,   0.04600,
,,,0.289700000000,   0.04200,
,,,0.289800000000,   0.04600,
,,,0.289900000000,   0.04000,
,,,0.290000000000,   0.03600,
,,,0.290100000000,   0.04200,
,,,0.290200000000,   0.02800,
,,,0.290300000000,   0.03000,
,,,0.290400000000,   0.03200,
,,,0.290500000000,   0.03000,
,,,0.290600000000,   0.03000,
,,,0.290700000000,   0.02800,
,,,0.290800000000,   0.02200,
,,,0.290900000000,   0.02400,
,,,0.291000000000,   0.02000,
,,,0.291100000000,   0.01800,
,,,0.291200000000,   0.02200,
,,,0.291300000000,   0.01600,
,,,0.291400000000,   0.01600,
,,,0.291500000000,   0.01800,
,,,0.291600000000,   0.01600,
,,,0.291700000000,   0.01600,
,,,0.291800000000,   0.01600,
,,,0.291900000000,   0.01600,
,,,0.292000000000,   0.01400,
,,,0.292100000000,   0.01400,
,,,0.292200000000,   0.01200,
,,,0.292300000000,   0.01400,
,,,0.292400000000,   0.01200,
,,,0.292500000000,   0.01000,
,,,0.292600000000,   0.03600,
,,,0.292700000000,   0.00000,
,,,0.292800000000,   0.00200,
,,,0.292900000000,   0.00600,
,,,0.293000000000,   0.00600,
,,,0.293100000000,   0.01000,
,,,0.293200000000,   0.01200,
,,,0.293300000000,   0.01400,
,,,0.293400000000,   0.02000,
,,,0.293500000000,   0.01600,
,,,0.293600000000,   0.01200,
,,,0.293700000000,   0.01000,
,,,0.293800000000,   0.00800,
,,,0.293900000000,   0.00800,
,,,0.294000000000,   0.01000,
,,,0.294100000000,   0.01200,
,,,0.294200000000,   0.01000,
,,,0.294300000000,   0.02200,
,,,0.294400000000,   0.01600,
,,,0.294500000000,   0.02400,
,,,0.294600000000,   0.04200,
,,,0.294700000000,   0.03000,
,,,0.294800000000,   0.02600,
,,,0.294900000000,   0.02200,
,,,0.295000000000,   0.02200,
,,,0.295100000000,   0.02200,
,,,0.295200000000,   0.01600,
,,,0.295300000000,   0.01600,
,,,0.295400000000,   0.02800,
,,,0.295500000000,   0.02800,
,,,0.295600000000,   0.03400,
,,,0.295700000000,   0.03600,
,,,0.295800000000,   0.04000,
,,,0.295900000000,   0.03400,
,,,0.296000000000,   0.02400,
,,,0.296100000000,   0.03400,
,,,0.296200000000,   0.03600,
,,,0.296300000000,   0.03800,
,,,0.296400000000,   0.02800,
,,,0.296500000000,   0.02200,
,,,0.296600000000,   0.03800,
,,,0.296700000000,   0.04000,
,,,0.296800000000,   0.03200,
,,,0.296900000000,   0.04600,
,,,0.297000000000,   0.03600,
,,,0.297100000000,   0.05200,
,,,0.297200000000,   0.04000,
,,,0.297300000000,   0.03600,
,,,0.297400000000,   0.03400,
,,,0.297500000000,   0.04000,
,,,0.297600000000,   0.03800,
,,,0.297700000000,   0.03600,
,,,0.297800000000,   0.03000,
,,,0.297900000000,   0.04000,
,,,0.298000000000,   0.04000,
,,,0.298100000000,   0.03400,
,,,0.298200000000,   0.03800,
,,,0.298300000000,   0.04600,
,,,0.298400000000,   0.04400,
,,,0.298500000000,   0.04600,
,,,0.298600000000,   0.03800,
,,,0.298700000000,   0.03000,
,,,0.298800000000,   0.04000,
,,,0.298900000000,   0.03600,
,,,0.299000000000,   0.03000,
,,,0.299100000000,   0.03200,
,,,0.299200000000,   0.03600,
,,,0.299300000000,   0.04800,
,,,0.299400000000,   0.03600,
,,,0.299500000000,   0.03600,
,,,0.299600000000,   0.05000,
,,,0.299700000000,   0.03400,
,,,0.299800000000,   0.02000,
,,,0.299900000000,   0.04000,
,,,0.300000000000,   0.03400,
,,,0.300100000000,   0.03600,
,,,0.300200000000,   0.03000,
,,,0.300300000000,   0.04400,
,,,0.300400000000,   0.04000,
,,,0.300500000000,   0.04400,
,,,0.300600000000,   0.03200,
,,,0.300700000000,   0.03400,
,,,0.300800000000,   0.04600,
,,,0.300900000000,   0.04000,
,,,0.301000000000,   0.03800,
,,,0.301100000000,   0.04400,
,,,0.301200000000,   0.03800,
,,,0.301300000000,   0.04000,
,,,0.301400000000,   0.03600,
,,,0.301500000000,   0.03400,
,,,0.301600000000,   0.03600,
,,,0.301700000000,   0.03000,
,,,0.301800000000,   0.04400,
,,,0.301900000000,   0.03800,
,,,0.302000000000,   0.03600,
,,,0.302100000000,   0.03400,
,,,0.302200000000,   0.03400,
,,,0.302300000000,   0.03400,
,,,0.302400000000,   0.03600,
,,,0.302500000000,   0.03000,
,,,0.302600000000,   0.02600,
,,,0.302700000000,   0.02800,
,,,0.302800000000,   0.02400,
,,,0.302900000000,   0.02000,
,,,0.303000000000,   0.02200,
,,,0.303100000000,   0.01600,
,,,0.303200000000,   0.02200,
,,,0.303300000000,   0.02000,
,,,0.303400000000,   0.01600,
,,,0.303500000000,   0.01800,
,,,0.303600000000,   0.01600,
,,,0.303700000000,   0.01600,
,,,0.303800000000,   0.00400,
,,,0.303900000000,   0.01600,
,,,0.304000000000,   0.01400,
,,,0.304100000000,   0.01400,
,,,0.304200000000,   0.01000,
,,,0.304300000000,   0.01000,
,,,0.304400000000,   0.00800,
,,,0.304500000000,   0.01000,
,,,0.304600000000,   0.01200,
,,,0.304700000000,   0.01000,
,,,0.304800000000,   0.01000,
,,,0.304900000000,   0.01000,
,,,0.305000000000,   0.00800,
,,,0.305100000000,   0.00800,
,,,0.305200000000,   0.00600,
,,,0.305300000000,   0.00600,
,,,0.305400000000,   0.00800,
,,,0.305500000000,   0.00600,
,,,0.305600000000,   0.00600,
,,,0.305700000000,   0.00800,
,,,0.305800000000,   0.00600,
,,,0.305900000000,   0.00800,
,,,0.306000000000,   0.00600,
,,,0.306100000000,   0.00800,
,,,0.306200000000,   0.00800,
,,,0.306300000000,   0.00600,
,,,0.306400000000,   0.00600,
,,,0.306500000000,   0.00600,
,,,0.306600000000,   0.00800,
,,,0.306700000000,   0.00600,
,,,0.306800000000,   0.00400,
,,,0.306900000000,   0.00600,
,,,0.307000000000,   0.00800,
,,,0.307100000000,   0.00600,
,,,0.307200000000,   0.00600,
,,,0.307300000000,   0.00400,
,,,0.307400000000,   0.00600,
,,,0.307500000000,   0.00400,
,,,0.307600000000,   0.00800,
,,,0.307700000000,   0.01800,
,,,0.307800000000,   0.01000,
,,,0.307900000000,   0.00400,
,,,0.308000000000,   0.00600,
,,,0.308100000000,   0.01200,
,,,0.308200000000,   0.00600,
,,,0.308300000000,   0.01000,
,,,0.308400000000,   0.01200,
,,,0.308500000000,   0.00800,
,,,0.308600000000,   0.00800,
,,,0.308700000000,   0.01000,
,,,0.308800000000,   0.00600,
,,,0.308900000000,   0.01000,
,,,0.309000000000,   0.01600,
,,,0.309100000000,   0.01000,
,,,0.309200000000,   0.00800,
,,,0.309300000000,   0.00200,
,,,0.309400000000,   0.00800,
,,,0.309500000000,   0.01400,
,,,0.309600000000,   0.00600,
,,,0.309700000000,   0.01000,
,,,0.309800000000,   0.01000,
,,,0.309900000000,   0.00600,
,,,0.310000000000,   0.01000,
,,,0.310100000000,   0.00400,
,,,0.310200000000,   0.00800,
,,,0.310300000000,   0.00400,
,,,0.310400000000,   0.00400,
,,,0.310500000000,   0.00600,
,,,0.310600000000,   0.01000,
,,,0.310700000000,   0.00400,
,,,0.310800000000,   0.00400,
,,,0.310900000000,   0.00400,
,,,0.311000000000,   0.00400,
,,,0.311100000000,   0.00400,
,,,0.311200000000,   0.00800,
,,,0.311300000000,   0.00400,
,,,0.311400000000,   0.00400,
,,,0.311500000000,   0.00400,
,,,0.311600000000,   0.00600,
,,,0.311700000000,   0.00800,
,,,0.311800000000,   0.00400,
,,,0.311900000000,   0.00400,
,,,0.312000000000,   0.00200,
,,,0.312100000000,   0.00200,
,,,0.312200000000,   0.00400,
,,,0.312300000000,   0.00200,
,,,0.312400000000,   0.00400,
,,,0.312500000000,   0.00400,
,,,0.312600000000,   0.00400,
,,,0.312700000000,   0.00200,
,,,0.312800000000,   0.00400,
,,,0.312900000000,   0.00200,
,,,0.313000000000,   0.00200,
,,,0.313100000000,   0.00000,
,,,0.313200000000,   0.00200,
,,,0.313300000000,   0.00200,
,,,0.313400000000,   0.00000,
,,,0.313500000000,   0.00200,
,,,0.313600000000,   0.00200,
,,,0.313700000000,   0.00200,
,,,0.313800000000,   0.00200,
,,,0.313900000000,   0.00200,
,,,0.314000000000,   0.00200,
,,,0.314100000000,   0.00200,
,,,0.314200000000,   0.00200,
,,,0.314300000000,   0.00200,
,,,0.314400000000,   0.00200,
,,,0.314500000000,   0.00000,
,,,0.314600000000,   0.00200,
,,,0.314700000000,   0.00200,
,,,0.314800000000,   0.00200,
,,,0.314900000000,   0.00000,
,,,0.315000000000,   0.00200,
,,,0.315100000000,   0.00200,
,,,0.315200000000,   0.00200,
,,,0.315300000000,   0.00000,
,,,0.315400000000,   0.00000,
,,,0.315500000000,   0.00200,
,,,0.315600000000,   0.00200,
,,,0.315700000000,   0.00000,
,,,0.315800000000,   0.00200,
,,,0.315900000000,   0.00000,
,,,0.316000000000,   0.00000,
,,,0.316100000000,   0.00200,
,,,0.316200000000,   0.00000,
,,,0.316300000000,   0.00000,
,,,0.316400000000,   0.00000,
,,,0.316500000000,   0.00000,
,,,0.316600000000,   0.00200,
,,,0.316700000000,   0.00200,
,,,0.316800000000,   0.00000,
,,,0.316900000000,   0.00200,
,,,0.317000000000,   0.00200,
,,,0.317100000000,   0.00000,
,,,0.317200000000,   0.00000,
,,,0.317300000000,   0.00200,
,,,0.317400000000,   0.00000,
,,,0.317500000000,   0.00000,
,,,0.317600000000,   0.00000,
,,,0.317700000000,   0.00000,
,,,0.317800000000,   0.00200,
,,,0.317900000000,   0.00000,
,,,0.318000000000,   0.00000,
,,,0.318100000000,   0.00200,
,,,0.318200000000,   0.00000,
,,,0.318300000000,   0.00000,
